<?xml version="1.0" encoding="utf-8" standalone="no"?>
<!DOCTYPE svg PUBLIC "-//W3C//DTD SVG 1.1//EN"
  "http://www.w3.org/Graphics/SVG/1.1/DTD/svg11.dtd">
<!-- Created with matplotlib (https://matplotlib.org/) -->
<svg height="345.6pt" version="1.1" viewBox="0 0 460.8 345.6" width="460.8pt" xmlns="http://www.w3.org/2000/svg" xmlns:xlink="http://www.w3.org/1999/xlink">
 <defs>
  <style type="text/css">
*{stroke-linecap:butt;stroke-linejoin:round;}
  </style>
 </defs>
 <g id="figure_1">
  <g id="patch_1">
   <path d="M 0 345.6 
L 460.8 345.6 
L 460.8 0 
L 0 0 
z
" style="fill:#ffffff;"/>
  </g>
  <g id="axes_1">
   <g id="patch_2">
    <path d="M 57.6 307.584 
L 414.72 307.584 
L 414.72 41.472 
L 57.6 41.472 
z
" style="fill:#ffffff;"/>
   </g>
   <g id="matplotlib.axis_1">
    <g id="xtick_1">
     <g id="line2d_1">
      <defs>
       <path d="M 0 0 
L 0 3.5 
" id="mc55fc594f0" style="stroke:#000000;stroke-width:0.8;"/>
      </defs>
      <g>
       <use style="stroke:#000000;stroke-width:0.8;" x="73.832727" xlink:href="#mc55fc594f0" y="307.584"/>
      </g>
     </g>
     <g id="text_1">
      <!-- 0 -->
      <defs>
       <path d="M 31.78125 66.40625 
Q 24.171875 66.40625 20.328125 58.90625 
Q 16.5 51.421875 16.5 36.375 
Q 16.5 21.390625 20.328125 13.890625 
Q 24.171875 6.390625 31.78125 6.390625 
Q 39.453125 6.390625 43.28125 13.890625 
Q 47.125 21.390625 47.125 36.375 
Q 47.125 51.421875 43.28125 58.90625 
Q 39.453125 66.40625 31.78125 66.40625 
z
M 31.78125 74.21875 
Q 44.046875 74.21875 50.515625 64.515625 
Q 56.984375 54.828125 56.984375 36.375 
Q 56.984375 17.96875 50.515625 8.265625 
Q 44.046875 -1.421875 31.78125 -1.421875 
Q 19.53125 -1.421875 13.0625 8.265625 
Q 6.59375 17.96875 6.59375 36.375 
Q 6.59375 54.828125 13.0625 64.515625 
Q 19.53125 74.21875 31.78125 74.21875 
z
" id="DejaVuSans-48"/>
      </defs>
      <g transform="translate(70.651477 322.182437)scale(0.1 -0.1)">
       <use xlink:href="#DejaVuSans-48"/>
      </g>
     </g>
    </g>
    <g id="xtick_2">
     <g id="line2d_2">
      <g>
       <use style="stroke:#000000;stroke-width:0.8;" x="138.763636" xlink:href="#mc55fc594f0" y="307.584"/>
      </g>
     </g>
     <g id="text_2">
      <!-- 200 -->
      <defs>
       <path d="M 19.1875 8.296875 
L 53.609375 8.296875 
L 53.609375 0 
L 7.328125 0 
L 7.328125 8.296875 
Q 12.9375 14.109375 22.625 23.890625 
Q 32.328125 33.6875 34.8125 36.53125 
Q 39.546875 41.84375 41.421875 45.53125 
Q 43.3125 49.21875 43.3125 52.78125 
Q 43.3125 58.59375 39.234375 62.25 
Q 35.15625 65.921875 28.609375 65.921875 
Q 23.96875 65.921875 18.8125 64.3125 
Q 13.671875 62.703125 7.8125 59.421875 
L 7.8125 69.390625 
Q 13.765625 71.78125 18.9375 73 
Q 24.125 74.21875 28.421875 74.21875 
Q 39.75 74.21875 46.484375 68.546875 
Q 53.21875 62.890625 53.21875 53.421875 
Q 53.21875 48.921875 51.53125 44.890625 
Q 49.859375 40.875 45.40625 35.40625 
Q 44.1875 33.984375 37.640625 27.21875 
Q 31.109375 20.453125 19.1875 8.296875 
z
" id="DejaVuSans-50"/>
      </defs>
      <g transform="translate(129.219886 322.182437)scale(0.1 -0.1)">
       <use xlink:href="#DejaVuSans-50"/>
       <use x="63.623047" xlink:href="#DejaVuSans-48"/>
       <use x="127.246094" xlink:href="#DejaVuSans-48"/>
      </g>
     </g>
    </g>
    <g id="xtick_3">
     <g id="line2d_3">
      <g>
       <use style="stroke:#000000;stroke-width:0.8;" x="203.694545" xlink:href="#mc55fc594f0" y="307.584"/>
      </g>
     </g>
     <g id="text_3">
      <!-- 400 -->
      <defs>
       <path d="M 37.796875 64.3125 
L 12.890625 25.390625 
L 37.796875 25.390625 
z
M 35.203125 72.90625 
L 47.609375 72.90625 
L 47.609375 25.390625 
L 58.015625 25.390625 
L 58.015625 17.1875 
L 47.609375 17.1875 
L 47.609375 0 
L 37.796875 0 
L 37.796875 17.1875 
L 4.890625 17.1875 
L 4.890625 26.703125 
z
" id="DejaVuSans-52"/>
      </defs>
      <g transform="translate(194.150795 322.182437)scale(0.1 -0.1)">
       <use xlink:href="#DejaVuSans-52"/>
       <use x="63.623047" xlink:href="#DejaVuSans-48"/>
       <use x="127.246094" xlink:href="#DejaVuSans-48"/>
      </g>
     </g>
    </g>
    <g id="xtick_4">
     <g id="line2d_4">
      <g>
       <use style="stroke:#000000;stroke-width:0.8;" x="268.625455" xlink:href="#mc55fc594f0" y="307.584"/>
      </g>
     </g>
     <g id="text_4">
      <!-- 600 -->
      <defs>
       <path d="M 33.015625 40.375 
Q 26.375 40.375 22.484375 35.828125 
Q 18.609375 31.296875 18.609375 23.390625 
Q 18.609375 15.53125 22.484375 10.953125 
Q 26.375 6.390625 33.015625 6.390625 
Q 39.65625 6.390625 43.53125 10.953125 
Q 47.40625 15.53125 47.40625 23.390625 
Q 47.40625 31.296875 43.53125 35.828125 
Q 39.65625 40.375 33.015625 40.375 
z
M 52.59375 71.296875 
L 52.59375 62.3125 
Q 48.875 64.0625 45.09375 64.984375 
Q 41.3125 65.921875 37.59375 65.921875 
Q 27.828125 65.921875 22.671875 59.328125 
Q 17.53125 52.734375 16.796875 39.40625 
Q 19.671875 43.65625 24.015625 45.921875 
Q 28.375 48.1875 33.59375 48.1875 
Q 44.578125 48.1875 50.953125 41.515625 
Q 57.328125 34.859375 57.328125 23.390625 
Q 57.328125 12.15625 50.6875 5.359375 
Q 44.046875 -1.421875 33.015625 -1.421875 
Q 20.359375 -1.421875 13.671875 8.265625 
Q 6.984375 17.96875 6.984375 36.375 
Q 6.984375 53.65625 15.1875 63.9375 
Q 23.390625 74.21875 37.203125 74.21875 
Q 40.921875 74.21875 44.703125 73.484375 
Q 48.484375 72.75 52.59375 71.296875 
z
" id="DejaVuSans-54"/>
      </defs>
      <g transform="translate(259.081705 322.182437)scale(0.1 -0.1)">
       <use xlink:href="#DejaVuSans-54"/>
       <use x="63.623047" xlink:href="#DejaVuSans-48"/>
       <use x="127.246094" xlink:href="#DejaVuSans-48"/>
      </g>
     </g>
    </g>
    <g id="xtick_5">
     <g id="line2d_5">
      <g>
       <use style="stroke:#000000;stroke-width:0.8;" x="333.556364" xlink:href="#mc55fc594f0" y="307.584"/>
      </g>
     </g>
     <g id="text_5">
      <!-- 800 -->
      <defs>
       <path d="M 31.78125 34.625 
Q 24.75 34.625 20.71875 30.859375 
Q 16.703125 27.09375 16.703125 20.515625 
Q 16.703125 13.921875 20.71875 10.15625 
Q 24.75 6.390625 31.78125 6.390625 
Q 38.8125 6.390625 42.859375 10.171875 
Q 46.921875 13.96875 46.921875 20.515625 
Q 46.921875 27.09375 42.890625 30.859375 
Q 38.875 34.625 31.78125 34.625 
z
M 21.921875 38.8125 
Q 15.578125 40.375 12.03125 44.71875 
Q 8.5 49.078125 8.5 55.328125 
Q 8.5 64.0625 14.71875 69.140625 
Q 20.953125 74.21875 31.78125 74.21875 
Q 42.671875 74.21875 48.875 69.140625 
Q 55.078125 64.0625 55.078125 55.328125 
Q 55.078125 49.078125 51.53125 44.71875 
Q 48 40.375 41.703125 38.8125 
Q 48.828125 37.15625 52.796875 32.3125 
Q 56.78125 27.484375 56.78125 20.515625 
Q 56.78125 9.90625 50.3125 4.234375 
Q 43.84375 -1.421875 31.78125 -1.421875 
Q 19.734375 -1.421875 13.25 4.234375 
Q 6.78125 9.90625 6.78125 20.515625 
Q 6.78125 27.484375 10.78125 32.3125 
Q 14.796875 37.15625 21.921875 38.8125 
z
M 18.3125 54.390625 
Q 18.3125 48.734375 21.84375 45.5625 
Q 25.390625 42.390625 31.78125 42.390625 
Q 38.140625 42.390625 41.71875 45.5625 
Q 45.3125 48.734375 45.3125 54.390625 
Q 45.3125 60.0625 41.71875 63.234375 
Q 38.140625 66.40625 31.78125 66.40625 
Q 25.390625 66.40625 21.84375 63.234375 
Q 18.3125 60.0625 18.3125 54.390625 
z
" id="DejaVuSans-56"/>
      </defs>
      <g transform="translate(324.012614 322.182437)scale(0.1 -0.1)">
       <use xlink:href="#DejaVuSans-56"/>
       <use x="63.623047" xlink:href="#DejaVuSans-48"/>
       <use x="127.246094" xlink:href="#DejaVuSans-48"/>
      </g>
     </g>
    </g>
    <g id="xtick_6">
     <g id="line2d_6">
      <g>
       <use style="stroke:#000000;stroke-width:0.8;" x="398.487273" xlink:href="#mc55fc594f0" y="307.584"/>
      </g>
     </g>
     <g id="text_6">
      <!-- 1000 -->
      <defs>
       <path d="M 12.40625 8.296875 
L 28.515625 8.296875 
L 28.515625 63.921875 
L 10.984375 60.40625 
L 10.984375 69.390625 
L 28.421875 72.90625 
L 38.28125 72.90625 
L 38.28125 8.296875 
L 54.390625 8.296875 
L 54.390625 0 
L 12.40625 0 
z
" id="DejaVuSans-49"/>
      </defs>
      <g transform="translate(385.762273 322.182437)scale(0.1 -0.1)">
       <use xlink:href="#DejaVuSans-49"/>
       <use x="63.623047" xlink:href="#DejaVuSans-48"/>
       <use x="127.246094" xlink:href="#DejaVuSans-48"/>
       <use x="190.869141" xlink:href="#DejaVuSans-48"/>
      </g>
     </g>
    </g>
   </g>
   <g id="matplotlib.axis_2">
    <g id="ytick_1">
     <g id="line2d_7">
      <defs>
       <path d="M 0 0 
L -3.5 0 
" id="m100bf61993" style="stroke:#000000;stroke-width:0.8;"/>
      </defs>
      <g>
       <use style="stroke:#000000;stroke-width:0.8;" x="57.6" xlink:href="#m100bf61993" y="271.29612"/>
      </g>
     </g>
     <g id="text_7">
      <!-- 4 -->
      <g transform="translate(44.2375 275.095338)scale(0.1 -0.1)">
       <use xlink:href="#DejaVuSans-52"/>
      </g>
     </g>
    </g>
    <g id="ytick_2">
     <g id="line2d_8">
      <g>
       <use style="stroke:#000000;stroke-width:0.8;" x="57.6" xlink:href="#m100bf61993" y="222.91206"/>
      </g>
     </g>
     <g id="text_8">
      <!-- 6 -->
      <g transform="translate(44.2375 226.711279)scale(0.1 -0.1)">
       <use xlink:href="#DejaVuSans-54"/>
      </g>
     </g>
    </g>
    <g id="ytick_3">
     <g id="line2d_9">
      <g>
       <use style="stroke:#000000;stroke-width:0.8;" x="57.6" xlink:href="#m100bf61993" y="174.528"/>
      </g>
     </g>
     <g id="text_9">
      <!-- 8 -->
      <g transform="translate(44.2375 178.327219)scale(0.1 -0.1)">
       <use xlink:href="#DejaVuSans-56"/>
      </g>
     </g>
    </g>
    <g id="ytick_4">
     <g id="line2d_10">
      <g>
       <use style="stroke:#000000;stroke-width:0.8;" x="57.6" xlink:href="#m100bf61993" y="126.14394"/>
      </g>
     </g>
     <g id="text_10">
      <!-- 10 -->
      <g transform="translate(37.875 129.943159)scale(0.1 -0.1)">
       <use xlink:href="#DejaVuSans-49"/>
       <use x="63.623047" xlink:href="#DejaVuSans-48"/>
      </g>
     </g>
    </g>
    <g id="ytick_5">
     <g id="line2d_11">
      <g>
       <use style="stroke:#000000;stroke-width:0.8;" x="57.6" xlink:href="#m100bf61993" y="77.75988"/>
      </g>
     </g>
     <g id="text_11">
      <!-- 12 -->
      <g transform="translate(37.875 81.559099)scale(0.1 -0.1)">
       <use xlink:href="#DejaVuSans-49"/>
       <use x="63.623047" xlink:href="#DejaVuSans-50"/>
      </g>
     </g>
    </g>
   </g>
   <g id="line2d_12">
    <path clip-path="url(#p600914960d)" d="M 73.832727 174.528 
L 76.760474 174.528 
L 77.736389 173.897567 
L 78.712305 172.868298 
L 79.68822 171.407326 
L 80.664136 169.518849 
L 81.965356 166.424057 
L 83.917187 161.041859 
L 86.194323 154.92143 
L 87.495544 152.052416 
L 88.471459 150.331178 
L 89.447375 149.005812 
L 90.42329 148.071156 
L 91.399206 147.504559 
L 92.375121 147.274986 
L 93.351037 147.350366 
L 94.326952 147.702284 
L 95.302868 148.307975 
L 96.278783 149.150132 
L 97.580004 150.617917 
L 98.881224 152.454225 
L 100.50775 155.218661 
L 102.459581 159.106035 
L 105.712633 166.313141 
L 107.664463 170.409113 
L 108.965684 172.679072 
L 109.9416 173.989307 
L 110.917515 174.867892 
L 111.568125 175.179209 
L 112.218736 175.254941 
L 112.869346 175.089862 
L 113.519956 174.687713 
L 114.170567 174.061776 
L 115.146482 172.75506 
L 116.447703 170.505122 
L 120.026059 163.8355 
L 121.32728 162.020368 
L 122.303195 161.00736 
L 123.279111 160.301302 
L 124.255026 159.890991 
L 125.230942 159.75696 
L 126.206857 159.878058 
L 127.182773 160.23548 
L 128.158688 160.814338 
L 129.459909 161.911446 
L 130.76113 163.360739 
L 132.06235 165.139423 
L 133.688876 167.77754 
L 135.640707 171.425323 
L 140.520284 180.862341 
L 141.4962 182.292428 
L 142.472115 183.369489 
L 143.122725 183.847325 
L 143.773336 184.106348 
L 144.423946 184.129461 
L 145.074556 183.906706 
L 145.725167 183.436809 
L 146.375777 182.728172 
L 147.351692 181.260254 
L 148.652913 178.712227 
L 153.207185 168.96802 
L 154.508406 167.012725 
L 155.484321 165.917264 
L 156.460237 165.134919 
L 157.436152 164.648417 
L 158.412068 164.436629 
L 159.387983 164.479534 
L 160.363899 164.760603 
L 161.339814 165.267053 
L 162.31573 165.988718 
L 163.61695 167.269465 
L 164.918171 168.890318 
L 166.544697 171.339165 
L 168.496528 174.755929 
L 172.725495 182.438433 
L 174.026715 184.244637 
L 175.002631 185.201597 
L 175.653241 185.600195 
L 176.303851 185.780692 
L 176.954462 185.72616 
L 177.605072 185.426923 
L 178.255682 184.882092 
L 178.906293 184.100531 
L 179.882208 182.528079 
L 181.183429 179.852125 
L 185.737701 169.779011 
L 187.038921 167.757515 
L 188.014837 166.617628 
L 188.990752 165.79446 
L 189.966668 165.270222 
L 190.942583 165.023474 
L 191.918499 165.034015 
L 192.894414 165.285188 
L 193.87033 165.764082 
L 194.846245 166.460374 
L 196.147466 167.710323 
L 197.448686 169.303289 
L 199.075212 171.72031 
L 201.027043 175.101296 
L 205.25601 182.699951 
L 206.557231 184.474131 
L 207.533146 185.404436 
L 208.183757 185.784137 
L 208.834367 185.945061 
L 209.484977 185.870583 
L 210.135588 185.551422 
L 210.786198 184.987147 
L 211.762113 183.704356 
L 212.738029 181.966279 
L 214.039249 179.144086 
L 217.617606 171.008887 
L 218.918827 168.716991 
L 219.894742 167.366413 
L 220.870658 166.339134 
L 221.846573 165.623328 
L 222.822489 165.199091 
L 223.798404 165.044973 
L 224.77432 165.141898 
L 225.750235 165.474617 
L 226.72615 166.031325 
L 227.702066 166.802184 
L 229.003287 168.146045 
L 230.304507 169.824518 
L 231.931033 172.330901 
L 233.882864 175.779828 
L 237.461221 182.252381 
L 238.762441 184.135812 
L 239.738357 185.180828 
L 240.388967 185.651335 
L 241.039577 185.912489 
L 241.690188 185.944946 
L 242.340798 185.735907 
L 242.991408 185.280803 
L 243.642019 184.584517 
L 244.617934 183.123066 
L 245.59385 181.244381 
L 247.220375 177.541354 
L 249.822817 171.600683 
L 251.124037 169.189721 
L 252.099953 167.741693 
L 253.075868 166.61773 
L 254.051784 165.810027 
L 255.027699 165.300305 
L 256.003615 165.067042 
L 256.97953 165.09019 
L 257.955445 165.353321 
L 258.931361 165.843715 
L 259.907276 166.551133 
L 261.208497 167.815248 
L 262.509718 169.421228 
L 264.136243 171.851844 
L 266.088074 175.242745 
L 270.317041 182.816118 
L 271.618262 184.562526 
L 272.594177 185.464881 
L 273.244788 185.82292 
L 273.895398 185.960269 
L 274.546008 185.86096 
L 275.196619 185.516532 
L 275.847229 184.927505 
L 276.823144 183.610732 
L 277.79906 181.845226 
L 279.100281 179.000549 
L 282.353332 171.534608 
L 283.654553 169.136535 
L 284.630468 167.699234 
L 285.606384 166.586 
L 286.582299 165.788542 
L 287.558215 165.288367 
L 288.53413 165.063942 
L 289.510046 165.095318 
L 290.485961 165.366199 
L 291.461876 165.863973 
L 292.437792 166.578451 
L 293.739013 167.851457 
L 295.040233 169.465554 
L 296.666759 171.904726 
L 298.61859 175.30236 
L 302.847557 182.865831 
L 304.148778 184.598952 
L 305.124693 185.487744 
L 305.775303 185.835221 
L 306.425914 185.961059 
L 307.076524 185.849623 
L 307.727134 185.492872 
L 308.377745 184.891801 
L 309.35366 183.558582 
L 310.329576 181.779948 
L 311.630796 178.924829 
L 314.883848 171.468549 
L 316.185068 169.083462 
L 317.160984 167.65692 
L 318.136899 166.554424 
L 319.112815 165.767206 
L 320.08873 165.27657 
L 321.064646 165.060975 
L 322.040561 165.100575 
L 323.016477 165.379204 
L 323.992392 165.884356 
L 324.968308 166.605894 
L 326.269528 167.887787 
L 327.570749 169.509987 
L 329.197275 171.957684 
L 331.149105 175.361983 
L 335.052767 182.409703 
L 336.353988 184.257354 
L 337.329903 185.264618 
L 337.980514 185.705116 
L 338.631124 185.933017 
L 339.281734 185.929843 
L 339.932345 185.683928 
L 340.582955 185.192058 
L 341.233565 184.460598 
L 342.209481 182.952608 
L 343.510701 180.332268 
L 348.390279 169.573773 
L 349.691499 167.614958 
L 350.667415 166.52319 
L 351.64333 165.746192 
L 352.619246 165.265071 
L 353.595161 165.058285 
L 354.571077 165.10609 
L 355.546992 165.392454 
L 356.522908 165.904973 
L 357.498823 166.633561 
L 358.800044 167.924325 
L 360.101264 169.554606 
L 361.72779 172.010785 
L 363.679621 175.421671 
L 367.583283 182.461365 
L 368.884504 184.296845 
L 369.860419 185.291346 
L 370.511029 185.721737 
L 371.16164 185.938474 
L 371.81225 185.923376 
L 372.46286 185.665163 
L 373.113471 185.161079 
L 373.764081 184.417987 
L 374.739996 182.894709 
L 376.041217 180.260142 
L 380.920794 169.517909 
L 382.222015 167.573356 
L 383.19793 166.492306 
L 384.173846 165.725506 
L 385.149761 165.253876 
L 386.125677 165.055876 
L 387.101592 165.11187 
L 388.077508 165.405954 
L 389.053423 165.925831 
L 390.029339 166.661459 
L 391.330559 167.961076 
L 392.63178 169.599414 
L 394.258306 172.064033 
L 396.210137 175.481424 
L 398.487273 179.713992 
L 398.487273 179.713992 
" style="fill:none;stroke:#1f77b4;stroke-linecap:square;stroke-width:1.5;"/>
   </g>
   <g id="line2d_13">
    <path clip-path="url(#p600914960d)" d="M 73.832727 174.528 
L 76.435169 174.528 
L 77.085779 173.954773 
L 77.736389 173.14787 
L 78.712305 171.47328 
L 79.68822 169.24256 
L 80.989441 165.504513 
L 82.941272 158.891258 
L 84.893103 152.346082 
L 86.194323 148.696004 
L 87.170239 146.5266 
L 88.146154 144.900202 
L 89.12207 143.819332 
L 89.77268 143.387868 
L 90.42329 143.171579 
L 91.073901 143.154099 
L 91.724511 143.318472 
L 92.700426 143.870616 
L 93.676342 144.746895 
L 94.652257 145.908803 
L 95.953478 147.85412 
L 97.254698 150.209113 
L 98.881224 153.670017 
L 100.833055 158.463557 
L 103.760802 166.449484 
L 106.037938 172.532112 
L 107.339158 175.521838 
L 108.315074 177.338219 
L 109.290989 178.659888 
L 109.9416 179.211965 
L 110.59221 179.46937 
L 111.24282 179.413593 
L 111.89343 179.036336 
L 112.544041 178.341474 
L 113.194651 177.346172 
L 114.170567 175.359905 
L 115.471787 172.038959 
L 118.724839 163.247629 
L 119.700754 161.172693 
L 120.67667 159.537393 
L 121.652585 158.367494 
L 122.628501 157.652494 
L 123.279111 157.412533 
L 123.929721 157.347111 
L 124.580332 157.44271 
L 125.556247 157.859873 
L 126.532163 158.571966 
L 127.508078 159.548887 
L 128.809299 161.225642 
L 130.110519 163.294803 
L 131.737045 166.378951 
L 133.688876 170.689596 
L 136.941927 178.659481 
L 138.893758 183.174567 
L 140.194979 185.643053 
L 141.170895 187.018622 
L 141.821505 187.642573 
L 142.472115 187.993693 
L 143.122725 188.044739 
L 143.773336 187.776446 
L 144.423946 187.180105 
L 145.074556 186.259626 
L 146.050472 184.313682 
L 147.026387 181.798138 
L 148.652913 176.825816 
L 150.930049 169.821146 
L 152.23127 166.539577 
L 153.207185 164.602706 
L 154.183101 163.148149 
L 155.159016 162.164836 
L 155.809627 161.754701 
L 156.460237 161.525786 
L 157.110847 161.464347 
L 158.086763 161.65758 
L 159.062678 162.159079 
L 160.038594 162.938048 
L 161.014509 163.971439 
L 162.31573 165.714941 
L 163.61695 167.842729 
L 165.243476 170.977797 
L 167.195307 175.278439 
L 171.424274 184.919728 
L 172.725495 187.242344 
L 173.70141 188.509088 
L 174.35202 189.060516 
L 175.002631 189.339162 
L 175.653241 189.317977 
L 176.303851 188.978048 
L 176.954462 188.311179 
L 177.605072 187.321921 
L 178.580987 185.27767 
L 179.556903 182.671789 
L 181.183429 177.571459 
L 183.460565 170.437593 
L 184.761785 167.103745 
L 185.737701 165.134707 
L 186.713616 163.652125 
L 187.689532 162.643615 
L 188.340142 162.217807 
L 188.990752 161.973928 
L 189.641363 161.898145 
L 190.617278 162.070949 
L 191.593194 162.553326 
L 192.569109 163.314527 
L 193.545025 164.331519 
L 194.846245 166.05518 
L 196.147466 168.165092 
L 197.773992 171.279664 
L 199.725823 175.556427 
L 203.95479 185.132359 
L 205.25601 187.425748 
L 206.231926 188.666605 
L 206.882536 189.198928 
L 207.533146 189.457198 
L 208.183757 189.414693 
L 208.834367 189.052971 
L 209.484977 188.36442 
L 210.135588 187.354265 
L 211.111503 185.281672 
L 212.087418 182.652945 
L 213.713944 177.530453 
L 215.99108 170.398497 
L 217.292301 167.077499 
L 218.268216 165.120573 
L 219.244132 163.650578 
L 220.220047 162.65411 
L 220.870658 162.235731 
L 221.521268 161.998715 
L 222.171878 161.929223 
L 223.147794 162.110492 
L 224.123709 162.600384 
L 225.099625 163.368406 
L 226.07554 164.391731 
L 227.376761 166.123245 
L 228.677981 168.240298 
L 230.304507 171.362328 
L 232.256338 175.644534 
L 236.485305 185.205988 
L 237.786526 187.483027 
L 238.762441 188.706979 
L 239.413052 189.225904 
L 240.063662 189.469303 
L 240.714272 189.410805 
L 241.364882 189.032447 
L 242.015493 188.327221 
L 242.666103 187.301029 
L 243.642019 185.207104 
L 244.617934 182.562186 
L 246.24446 177.427708 
L 248.521596 170.309701 
L 249.822817 167.007242 
L 250.798732 165.066177 
L 251.774647 163.612128 
L 252.750563 162.630719 
L 253.401173 162.221617 
L 254.051784 161.993193 
L 254.702394 161.931617 
L 255.678309 162.123612 
L 256.654225 162.623088 
L 257.63014 163.399832 
L 258.606056 164.431234 
L 259.907276 166.172711 
L 261.208497 168.298783 
L 262.835023 171.430331 
L 264.786854 175.720077 
L 269.015821 185.270392 
L 270.317041 187.531832 
L 271.292957 188.739387 
L 271.943567 189.245238 
L 272.594177 189.474088 
L 273.244788 189.39992 
L 273.895398 189.005265 
L 274.546008 188.283718 
L 275.196619 187.241863 
L 276.172534 185.127203 
L 277.473755 181.488506 
L 282.028027 167.682647 
L 283.003942 165.597641 
L 283.979858 163.997626 
L 284.955773 162.877492 
L 285.931689 162.206112 
L 286.582299 161.986351 
L 287.232909 161.932759 
L 288.208825 162.135572 
L 289.18474 162.644724 
L 290.160656 163.430279 
L 291.136571 164.469844 
L 292.437792 166.221384 
L 293.739013 168.356561 
L 295.365538 171.4977 
L 297.317369 175.795023 
L 301.546336 185.334025 
L 302.847557 187.579742 
L 303.823472 188.770802 
L 304.474083 189.26352 
L 305.124693 189.477776 
L 305.775303 189.387915 
L 306.425914 188.976965 
L 307.076524 188.239131 
L 307.727134 187.181682 
L 308.70305 185.046453 
L 310.00427 181.388733 
L 314.233237 168.398838 
L 315.209153 166.172912 
L 316.185068 164.426388 
L 317.160984 163.164644 
L 318.136899 162.362901 
L 318.78751 162.063864 
L 319.43812 161.93718 
L 320.08873 161.969309 
L 321.064646 162.288461 
L 322.040561 162.901997 
L 323.016477 163.782958 
L 324.317697 165.339271 
L 325.618918 167.297 
L 327.245444 170.248118 
L 329.197275 174.38706 
L 334.402157 186.012479 
L 335.378073 187.627148 
L 336.353988 188.801581 
L 337.004598 189.281089 
L 337.655209 189.480687 
L 338.305819 189.375091 
L 338.956429 188.947833 
L 339.60704 188.193731 
L 340.25765 187.120741 
L 341.233565 184.965087 
L 342.534786 181.288625 
L 346.763753 168.317293 
L 347.739668 166.106837 
L 348.715584 164.376591 
L 349.691499 163.130707 
L 350.667415 162.343641 
L 351.318025 162.053552 
L 351.968635 161.935124 
L 352.619246 161.974855 
L 353.595161 162.304341 
L 354.571077 162.927182 
L 355.546992 163.816678 
L 356.848213 165.383474 
L 358.149433 167.350764 
L 359.775959 170.312268 
L 361.72779 174.460266 
L 366.932673 186.072112 
L 367.908588 187.674063 
L 368.884504 188.831739 
L 369.535114 189.297956 
L 370.185724 189.482833 
L 370.836334 189.361461 
L 371.486945 188.917879 
L 372.137555 188.14753 
L 372.788165 187.059055 
L 373.764081 184.883121 
L 375.065302 181.188199 
L 379.294269 168.236234 
L 380.270184 166.041299 
L 381.246099 164.327334 
L 382.222015 163.097281 
L 383.19793 162.324845 
L 383.848541 162.043669 
L 384.499151 161.933463 
L 385.149761 161.980765 
L 386.125677 162.320546 
L 387.101592 162.952662 
L 388.077508 163.850673 
L 389.378728 165.427927 
L 390.679949 167.404755 
L 392.306475 170.376604 
L 394.258306 174.533581 
L 398.487273 184.214103 
L 398.487273 184.214103 
" style="fill:none;stroke:#ff7f0e;stroke-linecap:square;stroke-width:1.5;"/>
   </g>
   <g id="line2d_14">
    <path clip-path="url(#p600914960d)" d="M 73.832727 174.528 
L 76.109863 174.528 
L 76.760474 173.66015 
L 77.411084 172.475339 
L 78.386999 170.090753 
L 79.362915 167.013326 
L 80.664136 162.036978 
L 84.567797 146.01876 
L 85.543713 142.973636 
L 86.519628 140.629284 
L 87.170239 139.481866 
L 87.820849 138.667324 
L 88.471459 138.174708 
L 89.12207 137.985469 
L 89.77268 138.075908 
L 90.42329 138.419556 
L 91.073901 138.989293 
L 92.049816 140.211455 
L 93.025731 141.807038 
L 94.326952 144.412557 
L 95.953478 148.305115 
L 97.580004 152.795246 
L 99.531835 158.835039 
L 102.784886 169.800202 
L 105.062022 177.148372 
L 106.363243 180.679298 
L 107.339158 182.765718 
L 107.989769 183.805516 
L 108.640379 184.513276 
L 109.290989 184.849943 
L 109.9416 184.784533 
L 110.59221 184.297813 
L 111.24282 183.385657 
L 111.89343 182.061516 
L 112.869346 179.378086 
L 114.170567 174.802443 
L 117.748923 161.224828 
L 118.724839 158.408771 
L 119.700754 156.250698 
L 120.351365 155.195856 
L 121.001975 154.444006 
L 121.652585 153.981689 
L 122.303195 153.789428 
L 122.953806 153.844219 
L 123.604416 154.121758 
L 124.255026 154.598251 
L 125.230942 155.638744 
L 126.206857 157.015777 
L 127.508078 159.295901 
L 128.809299 162.015697 
L 130.435824 165.954247 
L 132.387655 171.335677 
L 138.568453 189.093181 
L 139.544369 191.024736 
L 140.194979 191.987004 
L 140.845589 192.635274 
L 141.4962 192.926615 
L 142.14681 192.824564 
L 142.79742 192.302958 
L 143.448031 191.349672 
L 144.098641 189.969711 
L 145.074556 187.157537 
L 146.050472 183.604059 
L 147.676998 176.70697 
L 149.628829 168.456475 
L 150.930049 163.890255 
L 151.905965 161.217272 
L 152.88188 159.253083 
L 153.53249 158.334942 
L 154.183101 157.71453 
L 154.833711 157.371711 
L 155.484321 157.282904 
L 156.134932 157.423317 
L 156.785542 157.76876 
L 157.761457 158.623364 
L 158.737373 159.82656 
L 160.038594 161.892351 
L 161.339814 164.416163 
L 162.96634 168.132654 
L 164.918171 173.275868 
L 168.171222 182.736832 
L 170.123053 188.111732 
L 171.424274 191.066593 
L 172.400189 192.717574 
L 173.0508 193.462889 
L 173.70141 193.871355 
L 174.35202 193.90301 
L 175.002631 193.526472 
L 175.653241 192.7228 
L 176.303851 191.488956 
L 176.954462 189.840296 
L 177.930377 186.670633 
L 179.231598 181.464348 
L 182.809954 166.411533 
L 183.78587 163.272454 
L 184.761785 160.820989 
L 185.737701 159.084684 
L 186.388311 158.312583 
L 187.038921 157.828968 
L 187.689532 157.61141 
L 188.340142 157.635317 
L 188.990752 157.875949 
L 189.641363 158.309957 
L 190.617278 159.278627 
L 191.593194 160.578245 
L 192.894414 162.753864 
L 194.195635 165.373369 
L 195.822161 169.192971 
L 197.773992 174.426609 
L 203.304179 189.845944 
L 204.280095 191.824983 
L 205.25601 193.246548 
L 205.906621 193.807668 
L 206.557231 194.009286 
L 207.207841 193.815669 
L 207.858451 193.201807 
L 208.509062 192.157122 
L 209.159672 190.688471 
L 210.135588 187.752723 
L 211.436808 182.752246 
L 215.665775 165.215194 
L 216.641691 162.318196 
L 217.617606 160.126652 
L 218.268216 159.062368 
L 218.918827 158.30381 
L 219.569437 157.832798 
L 220.220047 157.62673 
L 220.870658 157.660958 
L 221.521268 157.910768 
L 222.171878 158.352909 
L 223.147794 159.33212 
L 224.123709 160.640738 
L 225.42493 162.826723 
L 226.72615 165.455326 
L 228.352676 169.284718 
L 230.304507 174.526827 
L 235.834695 189.924454 
L 236.81061 191.886986 
L 237.786526 193.286869 
L 238.437136 193.83073 
L 239.087746 194.013119 
L 239.738357 193.798746 
L 240.388967 193.163237 
L 241.039577 192.096824 
L 241.690188 190.607292 
L 242.666103 187.64393 
L 243.967324 182.618017 
L 247.870986 166.214822 
L 248.846901 163.116466 
L 249.822817 160.709911 
L 250.798732 159.018478 
L 251.449342 158.274705 
L 252.099953 157.817436 
L 252.750563 157.623916 
L 253.401173 157.669446 
L 254.051784 157.929354 
L 254.702394 158.380494 
L 255.678309 159.371451 
L 256.654225 160.690182 
L 257.955445 162.887885 
L 259.256666 165.526796 
L 260.883192 169.367302 
L 262.835023 174.619212 
L 268.039905 189.249291 
L 269.015821 191.350416 
L 269.991736 192.935523 
L 270.642347 193.628506 
L 271.292957 193.978423 
L 271.943567 193.94634 
L 272.594177 193.502494 
L 273.244788 192.630119 
L 273.895398 191.328809 
L 274.871314 188.617814 
L 275.847229 185.129442 
L 277.473755 178.228259 
L 279.750891 168.496328 
L 281.052111 163.976159 
L 282.028027 161.356709 
L 283.003942 159.45184 
L 283.654553 158.572764 
L 284.305163 157.989183 
L 284.955773 157.679964 
L 285.606384 157.621013 
L 286.256994 157.787433 
L 286.907604 158.155237 
L 287.88352 159.037501 
L 288.859435 160.26293 
L 290.160656 162.352939 
L 291.461876 164.897339 
L 293.088402 168.635641 
L 295.040233 173.795856 
L 300.895726 190.069931 
L 301.871641 191.999777 
L 302.522252 192.977658 
L 303.172862 193.654509 
L 303.823472 193.986189 
L 304.474083 193.934132 
L 305.124693 193.469134 
L 305.775303 192.575173 
L 306.425914 191.252734 
L 307.401829 188.513013 
L 308.377745 185.002227 
L 310.00427 178.083593 
L 312.281406 168.370799 
L 313.582627 163.877598 
L 314.558543 161.28165 
L 315.534458 159.4006 
L 316.185068 158.536727 
L 316.835679 157.9674 
L 317.486289 157.671281 
L 318.136899 157.624189 
L 318.78751 157.801234 
L 319.43812 158.178512 
L 320.414035 159.073118 
L 321.389951 160.30911 
L 322.691171 162.411262 
L 323.992392 164.96629 
L 325.618918 168.716114 
L 327.570749 173.886823 
L 333.426242 190.141849 
L 334.402157 192.055107 
L 335.052767 193.019031 
L 335.703378 193.679641 
L 336.353988 193.992988 
L 337.004598 193.920883 
L 337.655209 193.434691 
L 338.305819 192.519147 
L 338.956429 191.175626 
L 339.932345 188.407343 
L 340.90826 184.8744 
L 342.534786 177.938853 
L 344.811922 168.245839 
L 346.113143 163.779792 
L 347.089058 161.20739 
L 348.064974 159.350136 
L 348.715584 158.501425 
L 349.366194 157.946299 
L 350.016805 157.663219 
L 350.667415 157.627923 
L 351.318025 157.815533 
L 351.968635 158.20223 
L 352.944551 159.109111 
L 353.920466 160.355616 
L 355.221687 162.469866 
L 356.522908 165.03549 
L 358.149433 168.796796 
L 360.101264 173.977923 
L 365.956757 190.213296 
L 366.932673 192.109794 
L 367.583283 193.059645 
L 368.233893 193.703902 
L 368.884504 193.99882 
L 369.535114 193.906595 
L 370.185724 193.399172 
L 370.836334 192.462046 
L 371.486945 191.097495 
L 372.46286 188.300815 
L 373.438776 184.745975 
L 375.065302 177.794055 
L 377.342438 168.121457 
L 378.643658 163.682744 
L 379.619574 161.133929 
L 380.595489 159.300448 
L 381.246099 158.466858 
L 381.89671 157.925878 
L 382.54732 157.655777 
L 383.19793 157.632214 
L 383.848541 157.83033 
L 384.499151 158.226392 
L 385.475066 159.145481 
L 386.450982 160.402449 
L 387.752203 162.52875 
L 389.053423 165.104939 
L 390.679949 168.877685 
L 392.63178 174.069155 
L 398.487273 190.284267 
L 398.487273 190.284267 
" style="fill:none;stroke:#2ca02c;stroke-linecap:square;stroke-width:1.5;"/>
   </g>
   <g id="line2d_15">
    <path clip-path="url(#p600914960d)" d="M 73.832727 174.528 
L 75.784558 174.528 
L 76.435169 173.214841 
L 77.085779 171.47959 
L 78.061694 168.101879 
L 79.03761 163.89261 
L 80.664136 155.616508 
L 82.941272 143.782694 
L 84.242492 138.251986 
L 85.218408 135.111812 
L 85.869018 133.565285 
L 86.519628 132.469986 
L 87.170239 131.81998 
L 87.820849 131.596246 
L 88.471459 131.769621 
L 89.12207 132.303975 
L 89.77268 133.159358 
L 90.748595 134.955267 
L 91.724511 137.252145 
L 93.025731 140.90783 
L 94.652257 146.17845 
L 96.604088 153.264885 
L 99.206529 163.662466 
L 103.760802 182.138881 
L 105.062022 186.470566 
L 106.037938 189.049153 
L 106.688548 190.343763 
L 107.339158 191.231138 
L 107.989769 191.656577 
L 108.315074 191.680993 
L 108.640379 191.573261 
L 109.290989 190.947395 
L 109.9416 189.763315 
L 110.59221 188.027763 
L 111.568125 184.466936 
L 112.544041 179.954931 
L 114.495872 169.408822 
L 116.122398 160.877749 
L 117.423618 155.311568 
L 118.399534 152.18734 
L 119.050144 150.653842 
L 119.700754 149.561678 
L 120.351365 148.895946 
L 121.001975 148.63057 
L 121.652585 148.731717 
L 122.303195 149.161137 
L 122.953806 149.879203 
L 123.929721 151.414169 
L 124.905637 153.397325 
L 126.206857 156.583308 
L 127.833383 161.236805 
L 129.785214 167.59093 
L 132.387655 177.00695 
L 135.966012 190.110353 
L 137.267233 194.134202 
L 138.243148 196.552625 
L 138.893758 197.774674 
L 139.544369 198.615123 
L 140.194979 199.015754 
L 140.520284 199.034392 
L 140.845589 198.924142 
L 141.4962 198.298791 
L 142.14681 197.114546 
L 142.79742 195.367524 
L 143.448031 193.078689 
L 144.423946 188.739842 
L 145.725167 181.699251 
L 148.978218 163.300815 
L 149.954134 158.978847 
L 150.930049 155.605114 
L 151.58066 153.920177 
L 152.23127 152.686859 
L 152.88188 151.888918 
L 153.53249 151.499071 
L 154.183101 151.482452 
L 154.833711 151.799976 
L 155.484321 152.411362 
L 156.460237 153.795077 
L 157.436152 155.636603 
L 158.737373 158.64766 
L 160.363899 163.103428 
L 162.31573 169.247783 
L 164.592866 177.233495 
L 168.821833 192.271821 
L 170.123053 195.988822 
L 171.098969 198.102524 
L 171.749579 199.08222 
L 172.400189 199.648945 
L 172.725495 199.759753 
L 173.0508 199.746963 
L 173.376105 199.604987 
L 174.026715 198.915658 
L 174.677326 197.667541 
L 175.327936 195.857953 
L 176.303851 192.146891 
L 177.279767 187.414075 
L 178.906293 178.108886 
L 181.183429 165.096377 
L 182.484649 159.14726 
L 183.460565 155.780904 
L 184.111175 154.103055 
L 184.761785 152.877492 
L 185.412396 152.087233 
L 186.063006 151.704432 
L 186.713616 151.69384 
L 187.364227 152.016157 
L 188.014837 152.631038 
L 188.990752 154.017705 
L 189.966668 155.859919 
L 191.267889 158.869578 
L 192.894414 163.321921 
L 194.846245 169.461507 
L 197.123381 177.439503 
L 201.352348 192.436415 
L 202.653569 196.125692 
L 203.629484 198.211627 
L 204.280095 199.16922 
L 204.930705 199.711035 
L 205.25601 199.808419 
L 205.581315 199.781637 
L 205.906621 199.625178 
L 206.557231 198.905815 
L 207.207841 197.627073 
L 207.858451 195.787455 
L 208.834367 192.035334 
L 209.810282 187.270021 
L 211.436808 177.937934 
L 213.713944 164.948261 
L 214.68986 160.365528 
L 215.665775 156.699875 
L 216.641691 154.044778 
L 217.292301 152.840658 
L 217.942911 152.070745 
L 218.593522 151.70673 
L 219.244132 151.713082 
L 219.894742 152.050373 
L 220.545353 152.678271 
L 221.521268 154.081089 
L 222.497183 155.93605 
L 223.798404 158.958864 
L 225.42493 163.423875 
L 227.376761 169.575381 
L 229.653897 177.562092 
L 233.557559 191.505071 
L 234.858779 195.376209 
L 235.834695 197.663357 
L 236.485305 198.788602 
L 237.135915 199.524575 
L 237.786526 199.813503 
L 238.111831 199.773921 
L 238.437136 199.604159 
L 239.087746 198.857089 
L 239.738357 197.55002 
L 240.388967 195.682646 
L 241.364882 191.892825 
L 242.340798 187.098286 
L 243.967324 177.74437 
L 246.24446 164.783319 
L 247.220375 160.228507 
L 248.196291 156.595506 
L 249.172206 153.974533 
L 249.822817 152.792607 
L 250.473427 152.0437 
L 251.124037 151.699062 
L 251.774647 151.722886 
L 252.425258 152.075633 
L 253.075868 152.716998 
L 254.051784 154.136587 
L 255.027699 156.004875 
L 256.32892 159.04157 
L 257.955445 163.520078 
L 259.907276 169.684366 
L 262.184412 177.680581 
L 266.088074 191.610521 
L 267.389295 195.462412 
L 268.36521 197.728042 
L 269.015821 198.835237 
L 269.666431 199.550188 
L 270.317041 199.815337 
L 270.642347 199.762965 
L 270.967652 199.579917 
L 271.618262 198.805207 
L 272.268872 197.469925 
L 272.919483 195.574967 
L 273.895398 191.74782 
L 274.871314 186.924544 
L 276.497839 177.549733 
L 278.44967 166.303644 
L 279.750891 160.091813 
L 280.726806 156.491633 
L 281.702722 153.904843 
L 282.353332 152.745101 
L 283.003942 152.017162 
L 283.654553 151.691839 
L 284.305163 151.733065 
L 284.955773 152.101195 
L 285.606384 152.755952 
L 286.582299 154.19222 
L 287.558215 156.073765 
L 288.859435 159.124287 
L 290.485961 163.616268 
L 292.437792 169.79332 
L 294.714928 177.798971 
L 298.61859 191.715485 
L 299.919811 195.547894 
L 300.895726 197.791798 
L 301.546336 198.880798 
L 302.196947 199.57459 
L 302.847557 199.815838 
L 303.172862 199.750625 
L 303.498167 199.554249 
L 304.148778 198.751848 
L 304.799388 197.38836 
L 305.449998 195.465889 
L 306.425914 191.601643 
L 307.401829 186.749985 
L 309.028355 177.355016 
L 310.980186 166.131652 
L 312.281406 159.95613 
L 313.257322 156.38887 
L 314.233237 153.836261 
L 314.883848 152.698656 
L 315.534458 151.991612 
L 316.185068 151.685516 
L 316.835679 151.744045 
L 317.486289 152.127457 
L 318.136899 152.795511 
L 319.112815 154.248331 
L 320.08873 156.143036 
L 321.389951 159.207296 
L 323.016477 163.712688 
L 324.968308 169.90245 
L 327.245444 177.917428 
L 331.149105 191.820075 
L 332.450326 195.632751 
L 333.426242 197.854711 
L 334.076852 198.925367 
L 334.727462 199.597855 
L 335.378073 199.815076 
L 335.703378 199.736969 
L 336.028683 199.527222 
L 336.679293 198.69708 
L 337.329903 197.30539 
L 337.980514 195.355474 
L 338.956429 191.454357 
L 339.932345 186.574669 
L 341.884176 175.214723 
L 343.836007 164.291033 
L 344.811922 159.82149 
L 345.787837 156.287241 
L 346.763753 153.768805 
L 347.414363 152.653289 
L 348.064974 151.967065 
L 348.715584 151.680105 
L 349.366194 151.755837 
L 350.016805 152.154429 
L 350.667415 152.835684 
L 351.64333 154.304931 
L 352.619246 156.212696 
L 353.920466 159.290607 
L 355.546992 163.809347 
L 357.498823 170.011761 
L 360.101264 179.224621 
L 363.354316 190.865937 
L 364.655537 194.847283 
L 365.631452 197.258941 
L 366.282062 198.489286 
L 366.932673 199.348272 
L 367.583283 199.77708 
L 367.908588 199.813048 
L 368.233893 199.721995 
L 368.559198 199.498836 
L 369.209809 198.640903 
L 369.860419 197.221019 
L 370.511029 195.24373 
L 371.486945 191.305972 
L 372.788165 184.600272 
L 377.017132 161.070391 
L 377.993048 157.242656 
L 378.968963 154.416634 
L 379.619574 153.100677 
L 380.270184 152.22447 
L 380.920794 151.762055 
L 381.571405 151.679382 
L 382.222015 151.937701 
L 382.872625 152.496653 
L 383.523236 153.316878 
L 384.499151 154.958727 
L 385.800372 157.761066 
L 387.101592 161.1071 
L 388.728118 165.892808 
L 390.679949 172.34721 
L 393.933001 184.117244 
L 396.210137 192.028127 
L 397.511357 195.800577 
L 398.487273 197.977994 
L 398.487273 197.977994 
" style="fill:none;stroke:#d62728;stroke-linecap:square;stroke-width:1.5;"/>
   </g>
   <g id="line2d_16">
    <path clip-path="url(#p600914960d)" d="M 73.832727 174.528 
L 75.459253 174.528 
L 76.109863 172.542646 
L 77.085779 168.54677 
L 78.061694 163.450451 
L 79.362915 155.401604 
L 82.290661 136.614451 
L 83.266577 131.593861 
L 84.242492 127.713882 
L 84.893103 125.843158 
L 85.543713 124.569995 
L 86.194323 123.892003 
L 86.519628 123.770336 
L 86.844934 123.788402 
L 87.170239 123.941264 
L 87.820849 124.628166 
L 88.471459 125.779454 
L 89.12207 127.338026 
L 90.097985 130.311134 
L 91.399206 135.171956 
L 93.025731 142.186612 
L 95.628173 154.590503 
L 100.182445 177.771117 
L 102.459581 188.677936 
L 103.760802 193.937979 
L 104.736717 197.074968 
L 105.387327 198.651191 
L 106.037938 199.728254 
L 106.688548 200.232853 
L 107.013853 200.249409 
L 107.339158 200.099076 
L 107.664463 199.775904 
L 108.315074 198.594213 
L 108.965684 196.687548 
L 109.616294 194.069767 
L 110.59221 188.923273 
L 111.89343 180.288303 
L 115.471787 154.73471 
L 116.447703 149.431841 
L 117.423618 145.412903 
L 118.074228 143.500044 
L 118.724839 142.203475 
L 119.375449 141.503333 
L 119.700754 141.36621 
L 120.026059 141.363684 
L 120.351365 141.489421 
L 121.001975 142.098064 
L 121.652585 143.134106 
L 122.628501 145.359069 
L 123.604416 148.21945 
L 124.905637 152.741377 
L 126.857468 160.498858 
L 129.459909 171.931524 
L 135.315402 198.21821 
L 136.616622 202.663179 
L 137.592538 205.098894 
L 138.243148 206.157296 
L 138.893758 206.674504 
L 139.219064 206.70748 
L 139.544369 206.579098 
L 139.869674 206.28227 
L 140.520284 205.161073 
L 141.170895 203.314964 
L 141.821505 200.744174 
L 142.79742 195.61276 
L 143.773336 189.193735 
L 145.399862 176.783785 
L 147.351692 161.962763 
L 148.652913 153.824104 
L 149.628829 149.159278 
L 150.279439 146.819932 
L 150.930049 145.110768 
L 151.58066 144.019385 
L 152.23127 143.515602 
L 152.556575 143.470738 
L 152.88188 143.555427 
L 153.53249 144.085269 
L 154.183101 145.046123 
L 154.833711 146.377478 
L 155.809627 148.942157 
L 157.110847 153.154921 
L 158.737373 159.267762 
L 161.014509 168.798457 
L 164.267561 183.533833 
L 167.195307 196.475358 
L 168.496528 201.337652 
L 169.472443 204.25714 
L 170.123053 205.728483 
L 170.773664 206.731844 
L 171.424274 207.191047 
L 171.749579 207.193998 
L 172.074884 207.035004 
L 172.400189 206.707082 
L 173.0508 205.522792 
L 173.70141 203.613542 
L 174.35202 200.981226 
L 175.327936 195.764597 
L 176.303851 189.274142 
L 178.255682 174.208498 
L 179.882208 161.946647 
L 181.183429 153.830113 
L 182.159344 149.193013 
L 182.809954 146.874894 
L 183.460565 145.187697 
L 184.111175 144.117947 
L 184.761785 143.634589 
L 185.087091 143.599268 
L 185.412396 143.692967 
L 186.063006 144.239048 
L 186.713616 145.2136 
L 187.364227 146.556074 
L 188.340142 149.132904 
L 189.641363 153.354907 
L 191.267889 159.472052 
L 193.545025 169.003006 
L 196.798076 183.731303 
L 199.400517 195.310471 
L 200.701738 200.359976 
L 201.677653 203.494008 
L 202.653569 205.819018 
L 203.304179 206.795245 
L 203.95479 207.223647 
L 204.280095 207.209941 
L 204.6054 207.033558 
L 204.930705 206.687625 
L 205.581315 205.466006 
L 206.231926 203.518832 
L 206.882536 200.849612 
L 207.858451 195.583358 
L 209.159672 186.667149 
L 213.063334 157.445768 
L 214.039249 151.980968 
L 215.015165 147.847117 
L 215.665775 145.87602 
L 216.316385 144.530876 
L 216.966996 143.788063 
L 217.292301 143.630818 
L 217.617606 143.608529 
L 217.942911 143.714584 
L 218.593522 144.283208 
L 219.244132 145.277299 
L 220.220047 147.434315 
L 221.195963 150.220768 
L 222.497183 154.637899 
L 224.449014 162.237048 
L 227.051456 173.476022 
L 232.581643 198.062808 
L 233.882864 202.629081 
L 234.858779 205.222403 
L 235.50939 206.420364 
L 236.16 207.104426 
L 236.485305 207.230393 
L 236.81061 207.200724 
L 237.135915 207.007643 
L 237.461221 206.644389 
L 238.111831 205.386827 
L 238.762441 203.403136 
L 239.413052 200.698445 
L 240.388967 195.384765 
L 241.690188 186.424386 
L 245.59385 157.244357 
L 246.569765 151.82124 
L 247.54568 147.733814 
L 248.196291 145.794275 
L 248.846901 144.479936 
L 249.497511 143.766312 
L 249.822817 143.622837 
L 250.148122 143.613682 
L 250.473427 143.732183 
L 251.124037 144.323503 
L 251.774647 145.337261 
L 252.750563 147.518221 
L 253.726478 150.32263 
L 255.027699 154.756425 
L 256.97953 162.370982 
L 259.581971 173.622282 
L 265.112159 198.188796 
L 266.413379 202.728756 
L 267.389295 205.293364 
L 268.039905 206.467446 
L 268.690516 207.123825 
L 269.015821 207.2346 
L 269.341126 207.188924 
L 269.666431 206.97911 
L 269.991736 206.598511 
L 270.642347 205.305006 
L 271.292957 203.284869 
L 271.943567 200.544862 
L 272.919483 195.184143 
L 274.220703 186.180343 
L 278.124365 157.043885 
L 279.100281 151.662714 
L 280.076196 147.621828 
L 280.726806 145.713851 
L 281.377417 144.430271 
L 282.028027 143.745748 
L 282.353332 143.615991 
L 282.678637 143.619909 
L 283.003942 143.750791 
L 283.654553 144.364669 
L 284.305163 145.397954 
L 285.281079 147.602658 
L 286.256994 150.424854 
L 287.558215 154.875155 
L 289.510046 162.505005 
L 292.112487 173.768566 
L 297.642674 198.314223 
L 298.943895 202.82756 
L 299.919811 205.363182 
L 300.570421 206.513195 
L 301.221031 207.141707 
L 301.546336 207.237208 
L 301.871641 207.175448 
L 302.196947 206.948835 
L 302.522252 206.55084 
L 303.172862 205.221333 
L 303.823472 203.164769 
L 304.474083 200.38955 
L 305.449998 194.982111 
L 306.751219 185.935553 
L 310.654881 156.844681 
L 311.630796 151.505679 
L 312.606712 147.511416 
L 313.257322 145.634983 
L 313.907932 144.382099 
L 314.558543 143.726577 
L 314.883848 143.610474 
L 315.209153 143.627398 
L 315.859763 144.032895 
L 316.510373 144.884963 
L 317.160984 146.123066 
L 318.136899 148.575059 
L 319.43812 152.679983 
L 321.064646 158.704631 
L 323.341782 168.155753 
L 326.594833 182.835297 
L 329.52258 195.850375 
L 330.8238 200.81751 
L 331.799716 203.857398 
L 332.450326 205.431886 
L 333.100936 206.557638 
L 333.751547 207.158099 
L 334.076852 207.238241 
L 334.402157 207.160322 
L 334.727462 206.916845 
L 335.378073 205.908907 
L 336.028683 204.180425 
L 336.679293 201.72542 
L 337.655209 196.749284 
L 338.631124 190.444017 
L 340.25765 178.090048 
L 342.534786 160.837949 
L 343.510701 154.740489 
L 344.486617 149.878659 
L 345.137227 147.402585 
L 345.787837 145.557677 
L 346.438448 144.335423 
L 347.089058 143.708798 
L 347.414363 143.606288 
L 347.739668 143.636151 
L 348.390279 144.065392 
L 349.040889 144.938204 
L 349.691499 146.194026 
L 350.667415 148.667261 
L 351.968635 152.792134 
L 353.595161 158.832493 
L 355.872297 168.29705 
L 359.125349 182.985022 
L 362.053095 195.98397 
L 363.354316 200.929863 
L 364.330231 203.945604 
L 364.980842 205.499469 
L 365.631452 206.600768 
L 366.282062 207.172994 
L 366.607367 207.237693 
L 366.932673 207.14354 
L 367.257978 206.883135 
L 367.908588 205.839769 
L 368.559198 204.074845 
L 369.209809 201.583934 
L 370.185724 196.558732 
L 371.16164 190.215151 
L 372.788165 177.83211 
L 375.065302 160.617381 
L 376.041217 154.557342 
L 377.017132 149.739975 
L 377.667743 147.295336 
L 378.318353 145.481932 
L 378.968963 144.29024 
L 379.619574 143.692407 
L 379.944879 143.603426 
L 380.270184 143.64616 
L 380.920794 144.098998 
L 381.571405 144.992402 
L 382.222015 146.265794 
L 383.19793 148.76007 
L 384.499151 152.904684 
L 386.125677 158.960598 
L 388.402813 168.438498 
L 391.655864 183.134733 
L 394.583611 196.117166 
L 395.884831 201.041534 
L 396.860747 204.032869 
L 397.511357 205.565921 
L 398.161968 206.642574 
L 398.487273 206.985768 
L 398.487273 206.985768 
" style="fill:none;stroke:#9467bd;stroke-linecap:square;stroke-width:1.5;"/>
   </g>
   <g id="line2d_17">
    <path clip-path="url(#p600914960d)" d="M 73.832727 174.528 
L 75.133948 174.528 
L 75.784558 171.529891 
L 76.760474 165.777312 
L 78.061694 156.237704 
L 81.640051 127.906302 
L 82.615966 122.046279 
L 83.591882 117.717837 
L 84.242492 115.776815 
L 84.893103 114.617346 
L 85.218408 114.32955 
L 85.543713 114.232808 
L 85.869018 114.322763 
L 86.194323 114.593855 
L 86.844934 115.651954 
L 87.495544 117.343516 
L 88.146154 119.594423 
L 89.12207 123.844084 
L 90.42329 130.72116 
L 92.375121 142.518559 
L 101.15836 197.322366 
L 102.459581 203.644496 
L 103.435496 207.389237 
L 104.086107 209.25105 
L 104.736717 210.495222 
L 105.062022 210.855849 
L 105.387327 211.026836 
L 105.712633 210.997503 
L 106.037938 210.758188 
L 106.363243 210.300552 
L 107.013853 208.705493 
L 107.664463 206.183783 
L 108.315074 202.745841 
L 109.290989 196.00116 
L 110.59221 184.658236 
L 114.495872 147.878259 
L 115.471787 141.080621 
L 116.447703 136.012049 
L 117.098313 133.663626 
L 117.748923 132.147111 
L 118.074228 131.694744 
L 118.399534 131.440222 
L 118.724839 131.377423 
L 119.050144 131.499144 
L 119.375449 131.797238 
L 120.026059 132.886163 
L 120.67667 134.565929 
L 121.652585 138.009984 
L 122.953806 143.893231 
L 124.580332 152.517065 
L 127.833383 171.367997 
L 132.71296 199.560395 
L 134.339486 207.591112 
L 135.315402 211.531762 
L 136.291317 214.492469 
L 136.941927 215.768803 
L 137.267233 216.1614 
L 137.592538 216.374276 
L 137.917843 216.395968 
L 138.243148 216.215788 
L 138.568453 215.82413 
L 139.219064 214.375303 
L 139.869674 212.00641 
L 140.520284 208.710949 
L 141.4962 202.122172 
L 142.472115 193.849359 
L 144.098641 177.737087 
L 146.375777 155.252772 
L 147.351692 147.271758 
L 148.327608 140.889308 
L 148.978218 137.63813 
L 149.628829 135.227229 
L 150.279439 133.657002 
L 150.604744 133.18035 
L 150.930049 132.90291 
L 151.255354 132.818322 
L 151.58066 132.919166 
L 151.905965 133.197098 
L 152.556575 134.247163 
L 153.207185 135.889099 
L 154.183101 139.276646 
L 155.159016 143.522592 
L 156.785542 151.829911 
L 159.387983 166.578675 
L 165.568781 201.918802 
L 166.870002 208.162047 
L 167.845917 212.04049 
L 168.821833 214.930703 
L 169.472443 216.154796 
L 169.797748 216.519654 
L 170.123053 216.703745 
L 170.448359 216.695667 
L 170.773664 216.484823 
L 171.098969 216.061732 
L 171.749579 214.548412 
L 172.400189 212.114303 
L 173.0508 208.755007 
L 174.026715 202.078184 
L 175.002631 193.733236 
L 176.629156 177.550207 
L 178.906293 155.076917 
L 179.882208 147.131948 
L 180.858124 140.797198 
L 181.508734 137.581621 
L 182.159344 135.207574 
L 182.809954 133.674055 
L 183.13526 133.215314 
L 183.460565 132.955305 
L 183.78587 132.887551 
L 184.111175 133.004524 
L 184.43648 133.297791 
L 185.087091 134.375859 
L 185.737701 136.041928 
L 186.713616 139.458108 
L 188.014837 145.289385 
L 189.641363 153.829398 
L 192.894414 172.495237 
L 197.773992 200.414018 
L 199.400517 208.32206 
L 200.376433 212.170644 
L 201.352348 215.021186 
L 202.002959 216.212864 
L 202.328264 216.55971 
L 202.653569 216.724628 
L 202.978874 216.696285 
L 203.304179 216.464178 
L 203.629484 216.01896 
L 204.280095 214.459464 
L 204.930705 211.97805 
L 205.581315 208.572361 
L 206.557231 201.83256 
L 207.533146 193.438861 
L 209.159672 177.219297 
L 211.436808 154.793832 
L 212.412724 146.896958 
L 213.388639 140.620062 
L 214.039249 137.445938 
L 214.68986 135.113954 
L 215.34047 133.62179 
L 215.665775 133.183094 
L 215.99108 132.942539 
L 216.316385 132.893534 
L 216.641691 133.028454 
L 216.966996 133.338786 
L 217.617606 134.448076 
L 218.268216 136.141218 
L 219.244132 139.590029 
L 220.545353 145.450898 
L 222.171878 154.010411 
L 225.42493 172.68671 
L 229.979202 198.856292 
L 231.605728 207.015889 
L 232.581643 211.10801 
L 233.557559 214.289492 
L 234.208169 215.755451 
L 234.858779 216.585031 
L 235.184085 216.731106 
L 235.50939 216.682825 
L 235.834695 216.429791 
L 236.16 215.962786 
L 236.81061 214.35783 
L 237.461221 211.829887 
L 238.111831 208.378658 
L 239.087746 201.577291 
L 240.063662 193.136368 
L 241.690188 176.882818 
L 243.642019 157.428426 
L 244.943239 146.660157 
L 245.919155 140.441734 
L 246.569765 137.309349 
L 247.220375 135.019622 
L 247.870986 133.568926 
L 248.196291 133.150306 
L 248.521596 132.929218 
L 248.846901 132.898962 
L 249.172206 133.051818 
L 249.497511 133.37919 
L 250.148122 134.51963 
L 250.798732 136.239754 
L 251.774647 139.721042 
L 253.075868 145.611328 
L 254.702394 154.190237 
L 257.955445 172.877123 
L 262.509718 199.030993 
L 264.136243 207.164096 
L 265.112159 211.230333 
L 266.088074 214.376415 
L 266.738685 215.812869 
L 267.389295 216.608082 
L 267.7146 216.735216 
L 268.039905 216.666911 
L 268.36521 216.392872 
L 268.690516 215.904016 
L 269.341126 214.253532 
L 269.991736 211.679087 
L 270.642347 208.18245 
L 271.618262 201.319926 
L 272.919483 189.728314 
L 277.14845 148.856841 
L 278.124365 142.120947 
L 279.100281 137.174776 
L 279.750891 134.927303 
L 280.401501 133.51801 
L 280.726806 133.119413 
L 281.052111 132.917727 
L 281.377417 132.906145 
L 281.702722 133.076852 
L 282.028027 133.421174 
L 282.678637 134.592566 
L 283.329248 136.339462 
L 284.305163 139.852917 
L 285.606384 145.772262 
L 287.232909 154.370262 
L 290.485961 173.067528 
L 295.040233 199.205306 
L 296.666759 207.311557 
L 297.642674 211.351621 
L 298.61859 214.461963 
L 299.2692 215.868669 
L 299.919811 216.629277 
L 300.245116 216.737359 
L 300.570421 216.648926 
L 300.895726 216.353791 
L 301.221031 215.843011 
L 301.871641 214.146907 
L 302.522252 211.525963 
L 303.172862 207.984033 
L 304.148778 201.060729 
L 305.449998 189.411983 
L 309.678965 148.605717 
L 310.654881 141.926277 
L 311.630796 137.042313 
L 312.281406 134.837081 
L 312.932017 133.469118 
L 313.257322 133.090487 
L 313.582627 132.908136 
L 313.907932 132.91515 
L 314.233237 133.103622 
L 314.883848 133.989235 
L 315.534458 135.487534 
L 316.185068 137.514801 
L 317.160984 141.361463 
L 318.462204 147.576951 
L 320.414035 158.199653 
L 325.293613 186.574514 
L 327.896054 201.096915 
L 329.197275 207.458283 
L 330.17319 211.471879 
L 331.149105 214.546139 
L 331.799716 215.922853 
L 332.450326 216.648618 
L 332.775631 216.737535 
L 333.100936 216.628872 
L 333.426242 216.312552 
L 333.751547 215.779773 
L 334.402157 214.03796 
L 335.052767 211.370526 
L 335.703378 207.783422 
L 336.679293 200.799726 
L 337.980514 189.094667 
L 341.884176 150.926792 
L 342.860091 143.749833 
L 343.836007 138.310449 
L 344.486617 135.724854 
L 345.137227 133.982511 
L 345.787837 133.063525 
L 346.113143 132.900439 
L 346.438448 132.92597 
L 346.763753 133.132119 
L 347.414363 134.050277 
L 348.064974 135.577045 
L 348.715584 137.628514 
L 349.691499 141.503614 
L 350.99272 147.743948 
L 352.944551 158.384014 
L 358.149433 188.644811 
L 360.42657 201.266373 
L 361.72779 207.604264 
L 362.703706 211.591098 
L 363.679621 214.628931 
L 364.330231 215.97541 
L 364.980842 216.666092 
L 365.306147 216.735734 
L 365.631452 216.606741 
L 365.956757 216.269147 
L 366.282062 215.714297 
L 366.932673 213.926692 
L 367.583283 211.212781 
L 368.233893 207.580627 
L 369.209809 200.536932 
L 370.511029 188.776391 
L 374.414691 150.662241 
L 375.390607 143.539335 
L 376.366522 138.161119 
L 377.017132 135.617777 
L 377.667743 133.917272 
L 378.318353 133.03852 
L 378.643658 132.894629 
L 378.968963 132.938596 
L 379.294269 133.162334 
L 379.944879 134.112842 
L 380.595489 135.667868 
L 381.571405 138.949503 
L 382.54732 143.117543 
L 384.173846 151.346241 
L 386.776287 166.047529 
L 392.957085 201.435385 
L 394.258306 207.749493 
L 395.234221 211.709266 
L 396.210137 214.710326 
L 396.860747 216.026326 
L 397.511357 216.681689 
L 397.836662 216.731947 
L 398.161968 216.582523 
L 398.487273 216.223568 
L 398.487273 216.223568 
" style="fill:none;stroke:#8c564b;stroke-linecap:square;stroke-width:1.5;"/>
   </g>
   <g id="line2d_18">
    <path clip-path="url(#p600914960d)" d="M 73.832727 174.528 
L 74.808643 174.528 
L 75.784558 167.443633 
L 77.085779 155.569113 
L 80.989441 117.398743 
L 81.965356 110.594764 
L 82.615966 107.159726 
L 83.266577 104.687741 
L 83.917187 103.213724 
L 84.242492 102.853473 
L 84.567797 102.742093 
L 84.893103 102.875721 
L 85.218408 103.248906 
L 85.869018 104.684893 
L 86.519628 106.979243 
L 87.170239 110.044041 
L 88.146154 115.864799 
L 89.447375 125.343784 
L 91.399206 141.593862 
L 95.953478 180.145567 
L 98.230614 197.737993 
L 99.85714 208.934108 
L 101.15836 216.442713 
L 102.134276 220.795422 
L 102.784886 222.891597 
L 103.435496 224.20642 
L 103.760802 224.533441 
L 104.086107 224.620957 
L 104.411412 224.455585 
L 104.736717 224.02525 
L 105.062022 223.319603 
L 105.712633 221.052061 
L 106.363243 217.6196 
L 107.013853 213.038642 
L 107.989769 204.183695 
L 109.290989 189.445673 
L 113.519956 138.153428 
L 114.495872 129.663624 
L 115.471787 123.407534 
L 116.122398 120.568208 
L 116.773008 118.810483 
L 117.098313 118.332237 
L 117.423618 118.114953 
L 117.748923 118.152066 
L 118.074228 118.435569 
L 118.399534 118.956143 
L 119.050144 120.665528 
L 119.700754 123.184955 
L 120.67667 128.247965 
L 121.97789 136.802541 
L 123.929721 151.795517 
L 129.134604 192.720515 
L 131.41174 208.750134 
L 132.71296 216.745146 
L 133.688876 221.809961 
L 134.664791 225.74088 
L 135.315402 227.551232 
L 135.966012 228.574948 
L 136.291317 228.754219 
L 136.616622 228.692538 
L 136.941927 228.376627 
L 137.267233 227.79461 
L 137.917843 225.794269 
L 138.568453 222.640117 
L 139.219064 218.327443 
L 140.194979 209.808278 
L 141.170895 199.196148 
L 142.79742 178.596481 
L 145.074556 149.611255 
L 146.375777 136.034494 
L 147.351692 128.206578 
L 148.002303 124.275415 
L 148.652913 121.424694 
L 149.303523 119.662045 
L 149.628829 119.18303 
L 149.954134 118.965747 
L 150.279439 119.003382 
L 150.604744 119.287699 
L 150.930049 119.80917 
L 151.58066 121.519849 
L 152.23127 124.038876 
L 153.207185 129.096142 
L 154.508406 137.631108 
L 156.460237 152.570486 
L 161.665119 193.304228 
L 163.942255 209.245867 
L 165.243476 217.180381 
L 166.219392 222.19076 
L 167.195307 226.056821 
L 167.845917 227.817188 
L 168.496528 228.785216 
L 168.821833 228.934555 
L 169.147138 228.841644 
L 169.472443 228.493331 
L 169.797748 227.877905 
L 170.448359 225.808606 
L 171.098969 222.584504 
L 171.749579 218.203528 
L 172.725495 209.591206 
L 173.70141 198.90483 
L 175.327936 178.238953 
L 177.605072 149.287692 
L 178.906293 135.782912 
L 179.882208 128.024567 
L 180.532818 124.143998 
L 181.183429 121.345294 
L 181.834039 119.634516 
L 182.159344 119.180927 
L 182.484649 118.988509 
L 182.809954 119.050296 
L 183.13526 119.357912 
L 183.460565 119.901705 
L 184.111175 121.653672 
L 184.761785 124.208958 
L 185.737701 129.31031 
L 187.038921 137.884631 
L 188.990752 152.847647 
L 193.87033 191.146146 
L 196.147466 207.324785 
L 197.773992 217.370583 
L 198.749907 222.347412 
L 199.725823 226.168492 
L 200.376433 227.891645 
L 201.027043 228.816427 
L 201.352348 228.941943 
L 201.677653 228.823846 
L 202.002959 228.449106 
L 202.328264 227.806183 
L 202.978874 225.679553 
L 203.629484 222.396838 
L 204.280095 217.958548 
L 205.25601 209.268716 
L 206.557231 194.587285 
L 211.111503 138.533208 
L 212.087418 130.1162 
L 213.063334 123.979284 
L 213.713944 121.235011 
L 214.364555 119.578187 
L 214.68986 119.150956 
L 215.015165 118.984267 
L 215.34047 119.071008 
L 215.665775 119.402671 
L 215.99108 119.96948 
L 216.641691 121.763987 
L 217.292301 124.35663 
L 218.268216 129.503498 
L 219.569437 138.118824 
L 221.521268 153.107731 
L 226.400845 191.388586 
L 228.677981 207.541717 
L 230.304507 217.551845 
L 231.280423 222.495531 
L 232.256338 226.27193 
L 232.906948 227.958026 
L 233.557559 228.839706 
L 233.882864 228.941474 
L 234.208169 228.798271 
L 234.533474 228.397198 
L 234.858779 227.726886 
L 235.50939 225.543202 
L 236.16 222.202252 
L 236.81061 217.707143 
L 237.786526 208.940755 
L 239.087746 194.186093 
L 243.642019 138.21882 
L 244.617934 129.873655 
L 245.268544 125.568936 
L 245.919155 122.334958 
L 246.569765 120.190139 
L 246.89507 119.523592 
L 247.220375 119.122692 
L 247.54568 118.98169 
L 247.870986 119.093328 
L 248.196291 119.448964 
L 248.846901 120.851554 
L 249.497511 123.097938 
L 250.148122 126.083822 
L 251.124037 131.703709 
L 252.425258 140.73543 
L 254.702394 158.584189 
L 258.606056 189.200749 
L 260.883192 205.573549 
L 262.509718 215.889928 
L 263.810938 222.642155 
L 264.786854 226.373476 
L 265.437464 228.022226 
L 265.762769 228.550232 
L 266.088074 228.860518 
L 266.413379 228.938405 
L 266.738685 228.769973 
L 267.06399 228.342459 
L 267.389295 227.644668 
L 268.039905 225.403826 
L 268.690516 222.00466 
L 269.341126 217.452884 
L 270.317041 208.610422 
L 271.618262 193.783533 
L 276.172534 137.906609 
L 277.14845 129.633637 
L 277.79906 125.381527 
L 278.44967 122.20183 
L 279.100281 120.1114 
L 279.425586 119.471631 
L 279.750891 119.097006 
L 280.076196 118.981618 
L 280.401501 119.118066 
L 280.726806 119.497577 
L 281.377417 120.944657 
L 282.028027 123.230578 
L 283.003942 128.000893 
L 283.979858 134.042073 
L 285.606384 145.927202 
L 293.088402 203.566956 
L 294.714928 214.159026 
L 296.016149 221.277173 
L 296.992064 225.399295 
L 297.642674 227.373334 
L 298.293285 228.591305 
L 298.61859 228.879002 
L 298.943895 228.932867 
L 299.2692 228.739079 
L 299.594505 228.285011 
L 299.919811 227.55965 
L 300.570421 225.261541 
L 301.221031 221.804171 
L 301.871641 217.195881 
L 302.847557 208.277822 
L 304.148778 193.379703 
L 308.377745 140.794909 
L 309.35366 131.885143 
L 310.329576 125.196805 
L 310.980186 122.07143 
L 311.630796 120.035357 
L 311.956101 119.422323 
L 312.281406 119.073912 
L 312.606712 118.984064 
L 312.932017 119.145235 
L 313.257322 119.548521 
L 313.907932 121.039859 
L 314.558543 123.365054 
L 315.534458 128.18393 
L 316.510373 134.260864 
L 318.136899 146.179527 
L 325.618918 203.791685 
L 327.245444 214.354541 
L 328.546664 221.433766 
L 329.52258 225.514102 
L 330.17319 227.453195 
L 330.8238 228.630185 
L 331.149105 228.895146 
L 331.474411 228.924851 
L 331.799716 228.70558 
L 332.125021 228.224849 
L 332.450326 227.471827 
L 333.100936 225.116348 
L 333.751547 221.600794 
L 334.402157 216.936145 
L 335.378073 207.942977 
L 336.679293 192.974633 
L 340.90826 140.465419 
L 341.884176 131.624912 
L 342.860091 125.014775 
L 343.510701 121.94376 
L 344.161312 119.962005 
L 344.486617 119.375661 
L 344.811922 119.053405 
L 345.137227 118.989022 
L 345.462532 119.174826 
L 345.787837 119.601786 
L 346.438448 121.137149 
L 347.089058 123.501352 
L 348.064974 128.368365 
L 349.040889 134.480631 
L 350.667415 146.432237 
L 357.824128 201.754171 
L 359.775959 214.549279 
L 361.07718 221.589156 
L 362.053095 225.627301 
L 362.703706 227.53115 
L 363.354316 228.666857 
L 363.679621 228.908937 
L 364.004926 228.914345 
L 364.330231 228.669466 
L 364.655537 228.161962 
L 365.306147 226.318626 
L 365.956757 223.326884 
L 366.607367 219.174531 
L 367.583283 210.874074 
L 368.559198 200.431874 
L 370.185724 179.96026 
L 372.46286 150.804391 
L 373.764081 136.983394 
L 374.739996 128.929005 
L 375.390607 124.83544 
L 376.041217 121.818819 
L 376.691827 119.891342 
L 377.017132 119.331642 
L 377.342438 119.035478 
L 377.667743 118.996483 
L 377.993048 119.20683 
L 378.318353 119.657361 
L 378.968963 121.236513 
L 379.619574 123.63946 
L 380.595489 128.554182 
L 381.571405 134.701361 
L 383.19793 146.685323 
L 390.354644 201.982179 
L 391.98117 212.769408 
L 393.28239 220.14837 
L 394.258306 224.551856 
L 394.908916 226.762249 
L 395.559526 228.258595 
L 395.884831 228.701308 
L 396.210137 228.920361 
L 396.535442 228.901335 
L 396.860747 228.630724 
L 397.186052 228.09634 
L 397.836662 226.196615 
L 398.487273 223.146715 
L 398.487273 223.146715 
" style="fill:none;stroke:#e377c2;stroke-linecap:square;stroke-width:1.5;"/>
   </g>
   <g id="line2d_19">
    <path clip-path="url(#p600914960d)" d="M 73.832727 174.528 
L 74.483338 174.528 
L 75.459253 164.0187 
L 77.085779 143.477267 
L 79.362915 114.868903 
L 80.33883 104.818248 
L 81.314746 96.960062 
L 81.965356 93.13758 
L 82.615966 90.537207 
L 82.941272 89.708464 
L 83.266577 89.196831 
L 83.591882 89.001864 
L 83.917187 89.121149 
L 84.242492 89.550367 
L 84.567797 90.283381 
L 85.218408 92.627724 
L 85.869018 96.072527 
L 86.844934 103.0715 
L 87.820849 111.891225 
L 89.12207 125.674918 
L 92.375121 163.815018 
L 94.652257 189.071629 
L 96.604088 208.40171 
L 98.230614 222.434415 
L 99.531835 231.736484 
L 100.50775 237.116456 
L 101.15836 239.714211 
L 101.808971 241.357787 
L 102.134276 241.776683 
L 102.459581 241.903619 
L 102.784886 241.722249 
L 103.110191 241.217765 
L 103.435496 240.377399 
L 104.086107 237.651139 
L 104.736717 233.500094 
L 105.387327 227.939561 
L 106.363243 217.144626 
L 107.664463 199.034359 
L 109.9416 162.424024 
L 111.568125 137.585655 
L 112.869346 121.190606 
L 113.845261 111.772596 
L 114.495872 107.064111 
L 115.146482 103.682601 
L 115.797092 101.651573 
L 116.122398 101.141049 
L 116.447703 100.962554 
L 116.773008 101.110317 
L 117.098313 101.576821 
L 117.423618 102.352895 
L 118.074228 104.789441 
L 118.724839 108.317736 
L 119.700754 115.388708 
L 120.67667 124.179343 
L 122.303195 141.323234 
L 127.182773 195.026526 
L 129.134604 213.533664 
L 130.76113 226.909944 
L 132.06235 235.69329 
L 133.038266 240.679855 
L 133.688876 243.010571 
L 134.339486 244.382326 
L 134.664791 244.663523 
L 134.990097 244.651719 
L 135.315402 244.330793 
L 135.640707 243.686253 
L 136.291317 241.379542 
L 136.941927 237.666986 
L 137.592538 232.538757 
L 138.568453 222.323691 
L 139.544369 209.488629 
L 141.170895 184.207123 
L 144.098641 137.82335 
L 145.399862 121.417497 
L 146.375777 112.025422 
L 147.026387 107.345657 
L 147.676998 103.999197 
L 148.327608 102.007287 
L 148.652913 101.517181 
L 148.978218 101.359346 
L 149.303523 101.527774 
L 149.628829 102.014723 
L 149.954134 102.810815 
L 150.604744 105.285349 
L 151.255354 108.847783 
L 152.23127 115.960401 
L 153.207185 124.779106 
L 154.833711 141.937826 
L 159.713288 195.527477 
L 161.665119 213.96809 
L 163.291645 227.278865 
L 164.592866 235.994012 
L 165.568781 240.915189 
L 166.219392 243.194065 
L 166.870002 244.506949 
L 167.195307 244.75612 
L 167.520612 244.710672 
L 167.845917 244.354627 
L 168.171222 243.673687 
L 168.821833 241.291371 
L 169.472443 237.501638 
L 170.123053 232.297703 
L 171.098969 221.978841 
L 172.074884 209.060258 
L 173.70141 183.701554 
L 176.303851 142.040305 
L 177.605072 124.766434 
L 178.580987 114.566796 
L 179.231598 109.301699 
L 179.882208 105.349782 
L 180.532818 102.746981 
L 180.858124 101.953837 
L 181.183429 101.496843 
L 181.508734 101.371617 
L 181.834039 101.571974 
L 182.159344 102.090004 
L 182.809954 104.039401 
L 183.460565 107.125915 
L 184.111175 111.235236 
L 185.087091 119.0291 
L 186.388311 131.710541 
L 188.665447 157.042396 
L 191.593194 189.228685 
L 193.545025 208.388852 
L 195.17155 222.488633 
L 196.472771 232.119311 
L 197.448686 237.987616 
L 198.099297 241.052203 
L 198.749907 243.286023 
L 199.400517 244.546632 
L 199.725823 244.767011 
L 200.051128 244.691113 
L 200.376433 244.303106 
L 200.701738 243.588889 
L 201.352348 241.137103 
L 202.002959 237.276171 
L 202.653569 232.002315 
L 203.629484 221.587868 
L 204.6054 208.593251 
L 206.231926 183.167883 
L 208.834367 141.566349 
L 210.135588 124.385311 
L 211.111503 114.273595 
L 211.762113 109.07277 
L 212.412724 105.187709 
L 213.063334 102.652702 
L 213.388639 101.89331 
L 213.713944 101.469712 
L 214.039249 101.377345 
L 214.364555 101.609846 
L 214.68986 102.159138 
L 215.34047 104.167796 
L 215.99108 107.308305 
L 216.641691 111.465451 
L 217.617606 119.318099 
L 218.918827 132.052395 
L 221.195963 157.413097 
L 224.123709 189.565676 
L 226.07554 208.689024 
L 227.702066 222.749762 
L 229.003287 232.336085 
L 229.979202 238.158527 
L 230.629812 241.184833 
L 231.280423 243.373419 
L 231.931033 244.581567 
L 232.256338 244.773067 
L 232.581643 244.666644 
L 232.906948 244.246616 
L 233.232254 243.499083 
L 233.882864 240.977831 
L 234.533474 237.045835 
L 235.184085 231.702341 
L 236.16 221.193004 
L 237.135915 208.123297 
L 238.762441 182.633088 
L 241.364882 141.093874 
L 242.666103 124.00656 
L 243.642019 113.983217 
L 244.292629 108.846855 
L 244.943239 105.028755 
L 245.59385 102.561566 
L 245.919155 101.835905 
L 246.24446 101.445666 
L 246.569765 101.386101 
L 246.89507 101.650672 
L 247.220375 102.231136 
L 247.870986 104.298827 
L 248.521596 107.493054 
L 249.172206 111.697705 
L 250.148122 119.608613 
L 251.449342 132.395053 
L 253.726478 157.783613 
L 256.654225 189.902005 
L 258.606056 208.988436 
L 260.232582 223.009891 
L 261.533802 232.551467 
L 262.509718 238.327626 
L 263.160328 241.315321 
L 263.810938 243.458318 
L 264.461549 244.613649 
L 264.786854 244.776103 
L 265.112159 244.639 
L 265.437464 244.186813 
L 265.762769 243.405848 
L 266.413379 240.814987 
L 267.06399 236.811928 
L 267.7146 231.398954 
L 268.690516 220.795249 
L 269.666431 207.65125 
L 271.292957 182.097822 
L 273.895398 140.623309 
L 275.196619 123.630538 
L 276.172534 113.69597 
L 276.823144 108.624237 
L 277.473755 104.87318 
L 278.124365 102.473809 
L 278.44967 101.781851 
L 278.774975 101.424923 
L 279.100281 101.398095 
L 279.425586 101.694654 
L 279.750891 102.30619 
L 280.401501 104.432675 
L 281.052111 107.680328 
L 282.028027 114.393793 
L 283.003942 122.909787 
L 284.305163 136.222126 
L 290.811266 206.269617 
L 292.437792 220.635914 
L 293.739013 230.566169 
L 294.714928 236.743793 
L 295.690844 241.443697 
L 296.341454 243.540746 
L 296.666759 244.225227 
L 296.992064 244.642902 
L 297.317369 244.776141 
L 297.642674 244.608202 
L 297.96798 244.123718 
L 298.293285 243.309208 
L 298.943895 240.648601 
L 299.594505 236.574482 
L 300.245116 231.092192 
L 301.221031 220.39465 
L 302.196947 207.177157 
L 303.823472 181.562132 
L 306.425914 140.154688 
L 307.727134 123.257268 
L 308.70305 113.411872 
L 309.35366 108.404927 
L 310.00427 104.72099 
L 310.654881 102.389434 
L 310.980186 101.731149 
L 311.305491 101.407483 
L 311.630796 101.413324 
L 311.956101 101.741786 
L 312.281406 102.384296 
L 312.932017 104.569329 
L 313.582627 107.870115 
L 314.558543 114.651284 
L 315.534458 123.219011 
L 317.160984 140.139609 
L 322.365866 197.155473 
L 324.317697 215.397559 
L 325.944223 228.480796 
L 326.920138 235.027552 
L 327.896054 240.21382 
L 328.546664 242.711527 
L 329.197275 244.279297 
L 329.52258 244.66931 
L 329.847885 244.773166 
L 330.17319 244.574237 
L 330.498495 244.057322 
L 330.8238 243.209155 
L 331.474411 240.478668 
L 332.125021 236.333502 
L 332.775631 230.782068 
L 333.751547 219.991228 
L 335.052767 201.83586 
L 337.329903 164.924957 
L 338.956429 139.688035 
L 340.25765 122.886767 
L 341.233565 113.130932 
L 341.884176 108.188932 
L 342.534786 104.572188 
L 343.185396 102.30844 
L 343.510701 101.683795 
L 343.836007 101.393339 
L 344.161312 101.431781 
L 344.486617 101.792061 
L 344.811922 102.465441 
L 345.462532 104.708777 
L 346.113143 108.062401 
L 347.089058 114.910763 
L 348.064974 123.529674 
L 349.691499 140.499469 
L 354.896382 197.478398 
L 356.848213 215.680447 
L 358.474739 228.717191 
L 359.450654 235.224448 
L 360.42657 240.358588 
L 361.07718 242.8132 
L 361.72779 244.33068 
L 362.053095 244.692856 
L 362.3784 244.767162 
L 362.703706 244.53709 
L 363.029011 243.987611 
L 363.354316 243.105679 
L 364.004926 240.305187 
L 364.655537 236.088994 
L 365.306147 230.468593 
L 366.282062 219.585006 
L 367.583283 201.339612 
L 369.860419 164.392977 
L 371.486945 139.223373 
L 372.788165 122.51905 
L 373.764081 112.85316 
L 374.414691 107.976256 
L 375.065302 104.426775 
L 375.715912 102.230824 
L 376.041217 101.639784 
L 376.366522 101.382486 
L 376.691827 101.453458 
L 377.017132 101.845467 
L 377.342438 102.549616 
L 377.993048 104.851005 
L 378.643658 108.257168 
L 379.619574 115.172212 
L 380.595489 123.84176 
L 382.222015 140.85988 
L 387.426897 197.800721 
L 389.378728 215.962566 
L 391.005254 228.952439 
L 391.98117 235.419828 
L 392.957085 240.501367 
L 393.607695 242.912531 
L 394.258306 244.379359 
L 394.583611 244.713523 
L 394.908916 244.758113 
L 395.234221 244.496748 
L 395.559526 243.914574 
L 395.884831 242.99877 
L 396.535442 240.128155 
L 397.186052 235.840962 
L 397.836662 230.151781 
L 398.487273 223.138319 
L 398.487273 223.138319 
" style="fill:none;stroke:#7f7f7f;stroke-linecap:square;stroke-width:1.5;"/>
   </g>
   <g id="line2d_20">
    <path clip-path="url(#p600914960d)" d="M 73.832727 174.528 
L 74.158032 174.528 
L 75.784558 148.121564 
L 78.061694 110.991947 
L 79.362915 93.553336 
L 80.33883 83.523213 
L 80.989441 78.554042 
L 81.640051 75.071084 
L 82.290661 73.132453 
L 82.615966 72.751202 
L 82.941272 72.762599 
L 83.266577 73.164547 
L 83.591882 73.952953 
L 84.242492 76.663103 
L 84.893103 80.822539 
L 85.543713 86.332988 
L 86.519628 96.856684 
L 87.820849 114.302408 
L 89.447375 139.646646 
L 93.351037 201.708561 
L 94.977562 223.612023 
L 96.278783 238.56206 
L 97.580004 250.816134 
L 98.555919 257.837102 
L 99.206529 261.253894 
L 99.85714 263.485074 
L 100.182445 264.107157 
L 100.50775 264.375017 
L 100.833055 264.271248 
L 101.15836 263.780341 
L 101.483666 262.889227 
L 102.134276 259.869224 
L 102.784886 255.172432 
L 103.435496 248.821738 
L 104.411412 236.399436 
L 105.387327 220.990914 
L 107.013853 190.753446 
L 110.266905 128.019512 
L 111.568125 107.571258 
L 112.544041 95.445379 
L 113.519956 86.568211 
L 114.170567 82.600614 
L 114.821177 80.249568 
L 115.146482 79.68535 
L 115.471787 79.527432 
L 115.797092 79.772447 
L 116.122398 80.415121 
L 116.447703 81.448308 
L 117.098313 84.648627 
L 117.748923 89.281145 
L 118.724839 98.65161 
L 119.700754 110.487259 
L 121.001975 129.11273 
L 123.929721 175.906127 
L 125.881552 205.418307 
L 127.508078 226.823222 
L 128.809299 241.362595 
L 130.110519 253.197344 
L 131.086435 259.896102 
L 131.737045 263.093651 
L 132.387655 265.102346 
L 132.71296 265.612326 
L 133.038266 265.767829 
L 133.363571 265.551778 
L 133.688876 264.949054 
L 134.014181 263.947035 
L 134.664791 260.709961 
L 135.315402 255.805949 
L 135.966012 249.262036 
L 136.941927 236.583824 
L 137.917843 220.967148 
L 139.544369 190.49608 
L 142.79742 127.673423 
L 144.098641 107.296737 
L 145.074556 95.25144 
L 145.725167 89.014801 
L 146.375777 84.321918 
L 147.026387 81.230991 
L 147.351692 80.295768 
L 147.676998 79.768471 
L 148.002303 79.647464 
L 148.327608 79.929169 
L 148.652913 80.608103 
L 149.303523 83.126473 
L 149.954134 87.122505 
L 150.604744 92.489488 
L 151.58066 102.819412 
L 152.88188 120.015301 
L 154.508406 145.011642 
L 158.086763 201.28083 
L 159.713288 223.269917 
L 161.014509 238.352156 
L 162.31573 250.836359 
L 163.291645 258.142328 
L 163.942255 261.822047 
L 164.592866 264.382287 
L 164.918171 265.194215 
L 165.243476 265.668266 
L 165.568781 265.786088 
L 165.894086 265.530776 
L 166.219392 264.887441 
L 166.544697 263.843742 
L 167.195307 260.521434 
L 167.845917 255.53221 
L 168.496528 248.906295 
L 169.472443 236.117676 
L 170.773664 214.655927 
L 172.725495 176.868012 
L 175.002631 132.819037 
L 176.303851 111.489735 
L 177.279767 98.54153 
L 178.255682 88.745254 
L 178.906293 84.13118 
L 179.556903 81.121162 
L 179.882208 80.226683 
L 180.207513 79.740058 
L 180.532818 79.659457 
L 180.858124 79.981108 
L 181.183429 80.69934 
L 181.834039 83.293631 
L 182.484649 87.360872 
L 183.13526 92.793086 
L 184.111175 103.207289 
L 185.412396 120.486062 
L 187.364227 150.776974 
L 190.617278 201.752166 
L 192.243804 223.676425 
L 193.545025 238.698428 
L 194.846245 251.111307 
L 195.822161 258.35112 
L 196.472771 261.978401 
L 197.123381 264.47858 
L 197.448686 265.257553 
L 197.773992 265.696767 
L 198.099297 265.777986 
L 198.424602 265.484484 
L 198.749907 264.801602 
L 199.075212 263.717281 
L 199.725823 260.311848 
L 200.376433 255.239509 
L 201.027043 248.533661 
L 202.002959 235.637637 
L 203.304179 214.06828 
L 205.25601 176.215447 
L 207.533146 132.239205 
L 208.834367 111.012001 
L 209.810282 98.162038 
L 210.786198 88.477239 
L 211.436808 83.942284 
L 212.087418 81.013383 
L 212.412724 80.159715 
L 212.738029 79.713806 
L 213.063334 79.67363 
L 213.388639 80.035225 
L 213.713944 80.79273 
L 214.364555 83.462833 
L 215.015165 87.601094 
L 215.665775 93.098284 
L 216.641691 103.596277 
L 217.942911 120.957159 
L 219.894742 151.303024 
L 223.147794 202.221448 
L 224.77432 224.080737 
L 226.07554 239.042398 
L 227.376761 251.383667 
L 228.352676 258.55694 
L 229.003287 262.13146 
L 229.653897 264.571232 
L 229.979202 265.317081 
L 230.304507 265.721295 
L 230.629812 265.765765 
L 230.955118 265.433945 
L 231.280423 264.711414 
L 231.605728 263.5864 
L 232.256338 260.097805 
L 232.906948 254.942468 
L 233.557559 248.156957 
L 234.533474 235.154189 
L 235.834695 213.478434 
L 237.786526 175.56274 
L 240.063662 131.661391 
L 241.364882 110.537227 
L 242.340798 97.786034 
L 243.316713 88.213069 
L 243.967324 83.757373 
L 244.617934 80.90965 
L 244.943239 80.096793 
L 245.268544 79.691581 
L 245.59385 79.691792 
L 245.919155 80.093272 
L 246.24446 80.889975 
L 246.89507 83.635683 
L 247.54568 87.844693 
L 248.196291 93.406526 
L 249.172206 103.987724 
L 250.473427 121.429824 
L 252.425258 151.829301 
L 255.353004 197.957135 
L 256.97953 220.391513 
L 258.280751 235.88916 
L 259.581971 248.861703 
L 260.557887 256.617929 
L 261.208497 260.654231 
L 261.859107 263.623644 
L 262.509718 265.373184 
L 262.835023 265.742217 
L 263.160328 265.749772 
L 263.485633 265.379491 
L 263.810938 264.617193 
L 264.461549 261.873791 
L 265.112159 257.467768 
L 265.762769 251.407245 
L 266.738685 239.386741 
L 267.7146 224.301345 
L 269.015821 200.672092 
L 273.244788 120.052382 
L 274.220703 105.518909 
L 275.196619 93.887045 
L 275.847229 87.952792 
L 276.497839 83.576489 
L 277.14845 80.809997 
L 277.473755 80.037949 
L 277.79906 79.673412 
L 278.124365 79.713968 
L 278.44967 80.155274 
L 278.774975 80.991095 
L 279.425586 83.812196 
L 280.076196 88.091678 
L 280.726806 93.717821 
L 281.702722 104.38163 
L 283.003942 121.904054 
L 284.955773 152.355803 
L 287.88352 198.435422 
L 289.510046 220.807003 
L 290.811266 236.245863 
L 292.112487 249.149677 
L 293.088402 256.842852 
L 293.739013 260.829275 
L 294.389623 263.741392 
L 295.040233 265.425852 
L 295.365538 265.759524 
L 295.690844 265.73 
L 296.016149 265.321114 
L 296.341454 264.518934 
L 296.992064 261.693164 
L 297.642674 257.203699 
L 298.293285 251.061802 
L 299.2692 238.92985 
L 300.245116 223.753532 
L 301.546336 200.045089 
L 305.775303 119.526657 
L 306.751219 105.081754 
L 307.727134 93.554491 
L 308.377745 87.696416 
L 309.028355 83.399635 
L 309.678965 80.714426 
L 310.00427 79.983182 
L 310.329576 79.659295 
L 310.654881 79.740153 
L 310.980186 80.221222 
L 311.305491 81.09608 
L 311.956101 83.992361 
L 312.606712 88.342035 
L 313.257322 94.032148 
L 314.233237 104.777975 
L 315.534458 122.379826 
L 317.486289 152.882509 
L 320.414035 198.912609 
L 322.040561 221.221108 
L 323.341782 236.600994 
L 324.643002 249.435739 
L 325.618918 257.065444 
L 326.269528 261.001637 
L 326.920138 263.85607 
L 327.570749 265.475065 
L 327.896054 265.773197 
L 328.221359 265.706431 
L 328.546664 265.258802 
L 328.871969 264.416628 
L 329.52258 261.508365 
L 330.17319 256.935486 
L 330.8238 250.712401 
L 331.799716 238.469556 
L 332.775631 223.203121 
L 334.076852 199.416781 
L 338.305819 119.003576 
L 339.281734 104.647854 
L 340.25765 93.225643 
L 340.90826 87.44395 
L 341.55887 83.226817 
L 342.209481 80.622936 
L 342.534786 79.93249 
L 342.860091 79.649227 
L 343.185396 79.770342 
L 343.510701 80.291109 
L 343.836007 81.204922 
L 344.486617 84.176165 
L 345.137227 88.595747 
L 346.113143 97.684666 
L 347.089058 109.292589 
L 348.390279 127.708524 
L 350.99272 169.205454 
L 353.269856 204.086833 
L 354.896382 225.683715 
L 356.197602 240.401941 
L 357.498823 252.452852 
L 358.474739 259.355355 
L 359.125349 262.715123 
L 359.775959 264.909361 
L 360.101264 265.520805 
L 360.42657 265.78322 
L 360.751875 265.679053 
L 361.07718 265.192542 
L 361.402485 264.310265 
L 362.053095 261.319391 
L 362.703706 256.663134 
L 363.354316 250.359056 
L 364.330231 238.005881 
L 365.306147 222.650142 
L 366.932673 192.429009 
L 370.185724 129.371426 
L 371.486945 108.668619 
L 372.46286 96.317612 
L 373.438776 87.195402 
L 374.089386 83.058039 
L 374.739996 80.535529 
L 375.065302 79.885872 
L 375.390607 79.643205 
L 375.715912 79.804529 
L 376.041217 80.364928 
L 376.366522 81.317611 
L 377.017132 84.363595 
L 377.667743 88.8528 
L 378.643658 98.033939 
L 379.619574 109.716518 
L 380.920794 128.201005 
L 383.523236 169.728581 
L 385.800372 204.550224 
L 387.426897 226.080884 
L 388.728118 240.737718 
L 390.029339 252.715029 
L 391.005254 259.548662 
L 391.655864 262.853806 
L 392.306475 264.985684 
L 392.63178 265.563054 
L 392.957085 265.789575 
L 393.28239 265.647849 
L 393.607695 265.122322 
L 393.933001 264.199836 
L 394.583611 261.126241 
L 395.234221 256.386649 
L 395.884831 250.00178 
L 396.860747 237.53885 
L 397.836662 222.094627 
L 398.487273 210.499317 
L 398.487273 210.499317 
" style="fill:none;stroke:#bcbd22;stroke-linecap:square;stroke-width:1.5;"/>
   </g>
   <g id="line2d_21">
    <path clip-path="url(#p600914960d)" d="M 73.832727 174.528 
L 76.435169 116.201677 
L 77.736389 91.658553 
L 78.712305 76.602151 
L 79.68822 65.021749 
L 80.33883 59.441134 
L 80.989441 55.679139 
L 81.314746 54.499852 
L 81.640051 53.795211 
L 81.965356 53.568 
L 82.290661 53.819119 
L 82.615966 54.547575 
L 82.941272 55.750487 
L 83.591882 59.558794 
L 84.242492 65.183861 
L 84.893103 72.5368 
L 85.869018 86.544776 
L 86.844934 103.675825 
L 88.146154 130.311004 
L 90.42329 182.510341 
L 92.700426 233.187278 
L 94.001647 257.674131 
L 94.977562 272.67666 
L 95.953478 284.195281 
L 96.604088 289.731388 
L 97.254698 293.447034 
L 97.580004 294.602683 
L 97.905309 295.283504 
L 98.230614 295.486804 
L 98.555919 295.211778 
L 98.881224 294.459516 
L 99.206529 293.23299 
L 99.85714 289.378409 
L 100.50775 283.708945 
L 101.15836 276.314187 
L 102.134276 262.249752 
L 103.110191 245.071523 
L 104.411412 218.390716 
L 107.013853 158.598118 
L 108.965684 115.536347 
L 110.266905 91.106008 
L 111.24282 76.157499 
L 112.218736 64.700773 
L 112.869346 59.20923 
L 113.519956 55.539969 
L 113.845261 54.407968 
L 114.170567 53.750975 
L 114.495872 53.571589 
L 114.821177 53.870517 
L 115.146482 54.64658 
L 115.471787 55.896706 
L 116.122398 59.797524 
L 116.773008 65.511329 
L 117.423618 72.947832 
L 118.399534 87.068588 
L 119.700754 110.622553 
L 121.32728 145.523524 
L 125.556247 240.359759 
L 126.857468 263.548388 
L 127.833383 277.329143 
L 128.809299 287.460843 
L 129.459909 292.004709 
L 130.110519 294.692192 
L 130.435824 295.325351 
L 130.76113 295.480823 
L 131.086435 295.157994 
L 131.41174 294.35814 
L 131.737045 293.084424 
L 132.387655 289.137409 
L 133.038266 283.379319 
L 133.688876 275.901145 
L 134.664791 261.724207 
L 135.966012 238.110165 
L 137.592538 203.163043 
L 141.821505 108.377449 
L 143.122725 85.250515 
L 144.098641 71.526908 
L 145.074556 61.459453 
L 145.725167 56.961241 
L 146.375777 54.320836 
L 146.701082 53.711518 
L 147.026387 53.579962 
L 147.351692 53.926688 
L 147.676998 54.750326 
L 148.002303 56.047618 
L 148.652913 60.040792 
L 149.303523 65.843109 
L 149.954134 73.362881 
L 150.930049 87.595861 
L 152.23127 111.269747 
L 153.857796 146.262674 
L 158.086763 240.996688 
L 159.387983 264.061698 
L 160.363899 277.728022 
L 161.339814 287.731133 
L 161.990424 292.183646 
L 162.641035 294.776947 
L 162.96634 295.362419 
L 163.291645 295.470057 
L 163.61695 295.099437 
L 163.942255 294.252023 
L 164.267561 292.931168 
L 164.918171 288.891875 
L 165.568781 283.045387 
L 166.219392 275.484092 
L 167.195307 261.195212 
L 168.496528 237.461717 
L 170.123053 202.42333 
L 174.35202 107.741832 
L 175.653241 84.738974 
L 176.629156 71.130068 
L 177.279767 64.071869 
L 177.930377 58.759115 
L 178.580987 55.275757 
L 178.906293 54.238459 
L 179.231598 53.67684 
L 179.556903 53.59312 
L 179.882208 53.98763 
L 180.207513 54.858811 
L 180.858124 58.015532 
L 181.508734 63.0134 
L 182.159344 69.773438 
L 183.13526 82.97668 
L 184.111175 99.42965 
L 185.412396 125.398585 
L 187.364227 169.584335 
L 189.966668 228.474621 
L 191.267889 253.726984 
L 192.243804 269.469989 
L 193.219719 281.84291 
L 193.87033 287.996946 
L 194.52094 292.357928 
L 195.17155 294.856946 
L 195.496856 295.394707 
L 195.822161 295.454507 
L 196.147466 295.036111 
L 196.472771 294.141171 
L 197.123381 290.93769 
L 197.773992 285.894687 
L 198.424602 279.091851 
L 199.400517 265.83026 
L 200.376433 249.327783 
L 201.677653 223.309574 
L 203.629484 179.091572 
L 206.231926 120.241184 
L 207.533146 95.041894 
L 208.509062 79.350785 
L 209.484977 67.03811 
L 210.135588 60.927831 
L 210.786198 56.612678 
L 211.436808 54.16084 
L 211.762113 53.646942 
L 212.087418 53.611061 
L 212.412724 54.05334 
L 212.738029 54.97203 
L 213.388639 58.222239 
L 214.039249 63.310328 
L 214.68986 70.155895 
L 215.665775 83.475702 
L 216.641691 100.027525 
L 217.942911 126.09475 
L 219.894742 170.344567 
L 222.497183 229.154474 
L 223.798404 254.300441 
L 224.77432 269.939499 
L 225.750235 282.191807 
L 226.400845 288.25827 
L 227.051456 292.52755 
L 227.702066 294.932184 
L 228.027371 295.422214 
L 228.352676 295.434174 
L 228.677981 294.968017 
L 229.003287 294.025587 
L 229.653897 290.728682 
L 230.304507 285.595558 
L 230.955118 278.707327 
L 231.931033 265.329434 
L 232.906948 248.728431 
L 234.208169 222.612448 
L 236.485305 170.724748 
L 238.762441 119.562408 
L 240.063662 94.470012 
L 241.039577 78.88316 
L 242.015493 66.691341 
L 242.666103 60.668755 
L 243.316713 56.445389 
L 243.967324 54.087983 
L 244.292629 53.621826 
L 244.617934 53.633786 
L 244.943239 54.123816 
L 245.268544 55.089977 
L 245.919155 58.433546 
L 246.569765 63.611655 
L 247.220375 70.542481 
L 248.196291 83.978327 
L 249.172206 100.628346 
L 250.473427 126.792831 
L 252.750563 178.711433 
L 255.027699 229.832166 
L 256.32892 254.870743 
L 257.304835 270.405235 
L 258.280751 282.536445 
L 258.931361 288.515095 
L 259.581971 292.692503 
L 260.232582 295.00266 
L 260.557887 295.444939 
L 260.883192 295.409058 
L 261.208497 294.89516 
L 261.533802 293.905277 
L 262.184412 290.515078 
L 262.835023 285.292035 
L 263.485633 278.318683 
L 264.461549 264.825016 
L 265.437464 248.126145 
L 266.738685 221.913419 
L 269.015821 169.964428 
L 271.292957 118.885807 
L 272.594177 93.901297 
L 273.570093 78.419318 
L 274.546008 66.348837 
L 275.196619 60.414183 
L 275.847229 56.282772 
L 276.497839 54.019889 
L 276.823144 53.601493 
L 277.14845 53.661293 
L 277.473755 54.199054 
L 277.79906 55.21265 
L 278.44967 58.649445 
L 279.100281 63.91737 
L 279.750891 70.93318 
L 280.726806 84.484533 
L 281.702722 101.232091 
L 283.003942 127.4928 
L 285.281079 179.471665 
L 287.558215 230.507671 
L 288.859435 255.437866 
L 289.835351 270.867178 
L 290.811266 282.876811 
L 291.461876 288.767411 
L 292.112487 292.852783 
L 292.437792 294.197189 
L 292.763097 295.06837 
L 293.088402 295.46288 
L 293.413707 295.37916 
L 293.739013 294.817541 
L 294.064318 293.780243 
L 294.714928 290.296885 
L 295.365538 284.984131 
L 296.016149 277.925932 
L 296.992064 264.317026 
L 297.96798 247.520947 
L 299.2692 221.212516 
L 301.546336 169.20429 
L 303.823472 118.211406 
L 305.124693 93.335771 
L 306.100608 77.959279 
L 307.076524 66.010613 
L 307.727134 60.164125 
L 308.377745 56.124832 
L 308.70305 54.803977 
L 309.028355 53.956563 
L 309.35366 53.585943 
L 309.678965 53.693581 
L 310.00427 54.279053 
L 310.329576 55.340042 
L 310.980186 58.869929 
L 311.630796 64.227461 
L 312.281406 71.327978 
L 313.257322 84.994302 
L 314.233237 101.838736 
L 315.534458 128.194629 
L 317.811594 180.231703 
L 320.08873 231.180961 
L 321.389951 256.001789 
L 322.365866 271.32531 
L 323.341782 283.212891 
L 323.992392 289.015208 
L 324.643002 293.008382 
L 324.968308 294.305674 
L 325.293613 295.129312 
L 325.618918 295.476038 
L 325.944223 295.344482 
L 326.269528 294.735164 
L 326.594833 293.650493 
L 327.245444 290.074113 
L 327.896054 284.671857 
L 328.546664 277.529092 
L 329.52258 263.805485 
L 330.498495 246.912862 
L 331.799716 220.509767 
L 334.076852 168.444361 
L 336.353988 117.539233 
L 337.655209 92.773457 
L 338.631124 77.503059 
L 339.60704 65.676681 
L 340.25765 59.918591 
L 340.90826 55.971576 
L 341.233565 54.69786 
L 341.55887 53.898006 
L 341.884176 53.575177 
L 342.209481 53.730649 
L 342.534786 54.363808 
L 342.860091 55.47215 
L 343.510701 59.094987 
L 344.161312 64.541914 
L 344.811922 71.726857 
L 345.787837 85.507612 
L 346.763753 102.448256 
L 348.064974 128.898292 
L 350.34211 180.991515 
L 352.619246 231.852009 
L 353.920466 256.562488 
L 354.896382 271.779613 
L 355.872297 283.544671 
L 356.522908 289.258476 
L 357.173518 293.159294 
L 357.498823 294.40942 
L 357.824128 295.185483 
L 358.149433 295.484411 
L 358.474739 295.305025 
L 358.800044 294.648032 
L 359.125349 293.516031 
L 359.775959 289.84677 
L 360.42657 284.355227 
L 361.07718 277.128177 
L 362.053095 263.290411 
L 363.029011 246.301914 
L 364.330231 219.805198 
L 366.607367 167.684674 
L 368.884504 116.869315 
L 370.185724 92.214377 
L 371.16164 77.050677 
L 372.137555 65.347055 
L 372.788165 59.677591 
L 373.438776 55.82301 
L 373.764081 54.596484 
L 374.089386 53.844222 
L 374.414691 53.569196 
L 374.739996 53.772496 
L 375.065302 54.453317 
L 375.390607 55.608966 
L 376.041217 59.324612 
L 376.691827 64.860719 
L 377.342438 72.129803 
L 378.318353 86.024443 
L 379.294269 103.060627 
L 380.595489 129.603759 
L 382.872625 181.751071 
L 385.149761 232.520791 
L 386.450982 257.119943 
L 387.426897 272.230069 
L 388.402813 283.872139 
L 389.053423 289.497206 
L 389.704034 293.305513 
L 390.029339 294.508425 
L 390.354644 295.236881 
L 390.679949 295.488 
L 391.005254 295.260789 
L 391.330559 294.556148 
L 391.655864 293.376861 
L 392.306475 289.614866 
L 392.957085 284.034251 
L 393.607695 276.723203 
L 394.583611 262.771827 
L 395.559526 245.688126 
L 396.860747 219.098839 
L 398.487273 182.130743 
L 398.487273 182.130743 
" style="fill:none;stroke:#17becf;stroke-linecap:square;stroke-width:1.5;"/>
   </g>
   <g id="patch_3">
    <path d="M 57.6 307.584 
L 57.6 41.472 
" style="fill:none;stroke:#000000;stroke-linecap:square;stroke-linejoin:miter;stroke-width:0.8;"/>
   </g>
   <g id="patch_4">
    <path d="M 414.72 307.584 
L 414.72 41.472 
" style="fill:none;stroke:#000000;stroke-linecap:square;stroke-linejoin:miter;stroke-width:0.8;"/>
   </g>
   <g id="patch_5">
    <path d="M 57.6 307.584 
L 414.72 307.584 
" style="fill:none;stroke:#000000;stroke-linecap:square;stroke-linejoin:miter;stroke-width:0.8;"/>
   </g>
   <g id="patch_6">
    <path d="M 57.6 41.472 
L 414.72 41.472 
" style="fill:none;stroke:#000000;stroke-linecap:square;stroke-linejoin:miter;stroke-width:0.8;"/>
   </g>
  </g>
 </g>
 <defs>
  <clipPath id="p600914960d">
   <rect height="266.112" width="357.12" x="57.6" y="41.472"/>
  </clipPath>
 </defs>
</svg>
