<?xml version="1.0" encoding="utf-8" standalone="no"?>
<!DOCTYPE svg PUBLIC "-//W3C//DTD SVG 1.1//EN"
  "http://www.w3.org/Graphics/SVG/1.1/DTD/svg11.dtd">
<!-- Created with matplotlib (https://matplotlib.org/) -->
<svg height="345.6pt" version="1.1" viewBox="0 0 460.8 345.6" width="460.8pt" xmlns="http://www.w3.org/2000/svg" xmlns:xlink="http://www.w3.org/1999/xlink">
 <defs>
  <style type="text/css">
*{stroke-linecap:butt;stroke-linejoin:round;}
  </style>
 </defs>
 <g id="figure_1">
  <g id="patch_1">
   <path d="M 0 345.6 
L 460.8 345.6 
L 460.8 0 
L 0 0 
z
" style="fill:#ffffff;"/>
  </g>
  <g id="axes_1">
   <g id="patch_2">
    <path d="M 57.6 162.432 
L 414.72 162.432 
L 414.72 41.472 
L 57.6 41.472 
z
" style="fill:#ffffff;"/>
   </g>
   <g id="matplotlib.axis_1">
    <g id="xtick_1">
     <g id="line2d_1">
      <defs>
       <path d="M 0 0 
L 0 3.5 
" id="mbd3bb860d6" style="stroke:#000000;stroke-width:0.8;"/>
      </defs>
      <g>
       <use style="stroke:#000000;stroke-width:0.8;" x="73.832727" xlink:href="#mbd3bb860d6" y="162.432"/>
      </g>
     </g>
     <g id="text_1">
      <!-- 0 -->
      <defs>
       <path d="M 31.78125 66.40625 
Q 24.171875 66.40625 20.328125 58.90625 
Q 16.5 51.421875 16.5 36.375 
Q 16.5 21.390625 20.328125 13.890625 
Q 24.171875 6.390625 31.78125 6.390625 
Q 39.453125 6.390625 43.28125 13.890625 
Q 47.125 21.390625 47.125 36.375 
Q 47.125 51.421875 43.28125 58.90625 
Q 39.453125 66.40625 31.78125 66.40625 
z
M 31.78125 74.21875 
Q 44.046875 74.21875 50.515625 64.515625 
Q 56.984375 54.828125 56.984375 36.375 
Q 56.984375 17.96875 50.515625 8.265625 
Q 44.046875 -1.421875 31.78125 -1.421875 
Q 19.53125 -1.421875 13.0625 8.265625 
Q 6.59375 17.96875 6.59375 36.375 
Q 6.59375 54.828125 13.0625 64.515625 
Q 19.53125 74.21875 31.78125 74.21875 
z
" id="DejaVuSans-48"/>
      </defs>
      <g transform="translate(70.651477 177.030437)scale(0.1 -0.1)">
       <use xlink:href="#DejaVuSans-48"/>
      </g>
     </g>
    </g>
    <g id="xtick_2">
     <g id="line2d_2">
      <g>
       <use style="stroke:#000000;stroke-width:0.8;" x="138.763636" xlink:href="#mbd3bb860d6" y="162.432"/>
      </g>
     </g>
     <g id="text_2">
      <!-- 200 -->
      <defs>
       <path d="M 19.1875 8.296875 
L 53.609375 8.296875 
L 53.609375 0 
L 7.328125 0 
L 7.328125 8.296875 
Q 12.9375 14.109375 22.625 23.890625 
Q 32.328125 33.6875 34.8125 36.53125 
Q 39.546875 41.84375 41.421875 45.53125 
Q 43.3125 49.21875 43.3125 52.78125 
Q 43.3125 58.59375 39.234375 62.25 
Q 35.15625 65.921875 28.609375 65.921875 
Q 23.96875 65.921875 18.8125 64.3125 
Q 13.671875 62.703125 7.8125 59.421875 
L 7.8125 69.390625 
Q 13.765625 71.78125 18.9375 73 
Q 24.125 74.21875 28.421875 74.21875 
Q 39.75 74.21875 46.484375 68.546875 
Q 53.21875 62.890625 53.21875 53.421875 
Q 53.21875 48.921875 51.53125 44.890625 
Q 49.859375 40.875 45.40625 35.40625 
Q 44.1875 33.984375 37.640625 27.21875 
Q 31.109375 20.453125 19.1875 8.296875 
z
" id="DejaVuSans-50"/>
      </defs>
      <g transform="translate(129.219886 177.030437)scale(0.1 -0.1)">
       <use xlink:href="#DejaVuSans-50"/>
       <use x="63.623047" xlink:href="#DejaVuSans-48"/>
       <use x="127.246094" xlink:href="#DejaVuSans-48"/>
      </g>
     </g>
    </g>
    <g id="xtick_3">
     <g id="line2d_3">
      <g>
       <use style="stroke:#000000;stroke-width:0.8;" x="203.694545" xlink:href="#mbd3bb860d6" y="162.432"/>
      </g>
     </g>
     <g id="text_3">
      <!-- 400 -->
      <defs>
       <path d="M 37.796875 64.3125 
L 12.890625 25.390625 
L 37.796875 25.390625 
z
M 35.203125 72.90625 
L 47.609375 72.90625 
L 47.609375 25.390625 
L 58.015625 25.390625 
L 58.015625 17.1875 
L 47.609375 17.1875 
L 47.609375 0 
L 37.796875 0 
L 37.796875 17.1875 
L 4.890625 17.1875 
L 4.890625 26.703125 
z
" id="DejaVuSans-52"/>
      </defs>
      <g transform="translate(194.150795 177.030437)scale(0.1 -0.1)">
       <use xlink:href="#DejaVuSans-52"/>
       <use x="63.623047" xlink:href="#DejaVuSans-48"/>
       <use x="127.246094" xlink:href="#DejaVuSans-48"/>
      </g>
     </g>
    </g>
    <g id="xtick_4">
     <g id="line2d_4">
      <g>
       <use style="stroke:#000000;stroke-width:0.8;" x="268.625455" xlink:href="#mbd3bb860d6" y="162.432"/>
      </g>
     </g>
     <g id="text_4">
      <!-- 600 -->
      <defs>
       <path d="M 33.015625 40.375 
Q 26.375 40.375 22.484375 35.828125 
Q 18.609375 31.296875 18.609375 23.390625 
Q 18.609375 15.53125 22.484375 10.953125 
Q 26.375 6.390625 33.015625 6.390625 
Q 39.65625 6.390625 43.53125 10.953125 
Q 47.40625 15.53125 47.40625 23.390625 
Q 47.40625 31.296875 43.53125 35.828125 
Q 39.65625 40.375 33.015625 40.375 
z
M 52.59375 71.296875 
L 52.59375 62.3125 
Q 48.875 64.0625 45.09375 64.984375 
Q 41.3125 65.921875 37.59375 65.921875 
Q 27.828125 65.921875 22.671875 59.328125 
Q 17.53125 52.734375 16.796875 39.40625 
Q 19.671875 43.65625 24.015625 45.921875 
Q 28.375 48.1875 33.59375 48.1875 
Q 44.578125 48.1875 50.953125 41.515625 
Q 57.328125 34.859375 57.328125 23.390625 
Q 57.328125 12.15625 50.6875 5.359375 
Q 44.046875 -1.421875 33.015625 -1.421875 
Q 20.359375 -1.421875 13.671875 8.265625 
Q 6.984375 17.96875 6.984375 36.375 
Q 6.984375 53.65625 15.1875 63.9375 
Q 23.390625 74.21875 37.203125 74.21875 
Q 40.921875 74.21875 44.703125 73.484375 
Q 48.484375 72.75 52.59375 71.296875 
z
" id="DejaVuSans-54"/>
      </defs>
      <g transform="translate(259.081705 177.030437)scale(0.1 -0.1)">
       <use xlink:href="#DejaVuSans-54"/>
       <use x="63.623047" xlink:href="#DejaVuSans-48"/>
       <use x="127.246094" xlink:href="#DejaVuSans-48"/>
      </g>
     </g>
    </g>
    <g id="xtick_5">
     <g id="line2d_5">
      <g>
       <use style="stroke:#000000;stroke-width:0.8;" x="333.556364" xlink:href="#mbd3bb860d6" y="162.432"/>
      </g>
     </g>
     <g id="text_5">
      <!-- 800 -->
      <defs>
       <path d="M 31.78125 34.625 
Q 24.75 34.625 20.71875 30.859375 
Q 16.703125 27.09375 16.703125 20.515625 
Q 16.703125 13.921875 20.71875 10.15625 
Q 24.75 6.390625 31.78125 6.390625 
Q 38.8125 6.390625 42.859375 10.171875 
Q 46.921875 13.96875 46.921875 20.515625 
Q 46.921875 27.09375 42.890625 30.859375 
Q 38.875 34.625 31.78125 34.625 
z
M 21.921875 38.8125 
Q 15.578125 40.375 12.03125 44.71875 
Q 8.5 49.078125 8.5 55.328125 
Q 8.5 64.0625 14.71875 69.140625 
Q 20.953125 74.21875 31.78125 74.21875 
Q 42.671875 74.21875 48.875 69.140625 
Q 55.078125 64.0625 55.078125 55.328125 
Q 55.078125 49.078125 51.53125 44.71875 
Q 48 40.375 41.703125 38.8125 
Q 48.828125 37.15625 52.796875 32.3125 
Q 56.78125 27.484375 56.78125 20.515625 
Q 56.78125 9.90625 50.3125 4.234375 
Q 43.84375 -1.421875 31.78125 -1.421875 
Q 19.734375 -1.421875 13.25 4.234375 
Q 6.78125 9.90625 6.78125 20.515625 
Q 6.78125 27.484375 10.78125 32.3125 
Q 14.796875 37.15625 21.921875 38.8125 
z
M 18.3125 54.390625 
Q 18.3125 48.734375 21.84375 45.5625 
Q 25.390625 42.390625 31.78125 42.390625 
Q 38.140625 42.390625 41.71875 45.5625 
Q 45.3125 48.734375 45.3125 54.390625 
Q 45.3125 60.0625 41.71875 63.234375 
Q 38.140625 66.40625 31.78125 66.40625 
Q 25.390625 66.40625 21.84375 63.234375 
Q 18.3125 60.0625 18.3125 54.390625 
z
" id="DejaVuSans-56"/>
      </defs>
      <g transform="translate(324.012614 177.030437)scale(0.1 -0.1)">
       <use xlink:href="#DejaVuSans-56"/>
       <use x="63.623047" xlink:href="#DejaVuSans-48"/>
       <use x="127.246094" xlink:href="#DejaVuSans-48"/>
      </g>
     </g>
    </g>
    <g id="xtick_6">
     <g id="line2d_6">
      <g>
       <use style="stroke:#000000;stroke-width:0.8;" x="398.487273" xlink:href="#mbd3bb860d6" y="162.432"/>
      </g>
     </g>
     <g id="text_6">
      <!-- 1000 -->
      <defs>
       <path d="M 12.40625 8.296875 
L 28.515625 8.296875 
L 28.515625 63.921875 
L 10.984375 60.40625 
L 10.984375 69.390625 
L 28.421875 72.90625 
L 38.28125 72.90625 
L 38.28125 8.296875 
L 54.390625 8.296875 
L 54.390625 0 
L 12.40625 0 
z
" id="DejaVuSans-49"/>
      </defs>
      <g transform="translate(385.762273 177.030437)scale(0.1 -0.1)">
       <use xlink:href="#DejaVuSans-49"/>
       <use x="63.623047" xlink:href="#DejaVuSans-48"/>
       <use x="127.246094" xlink:href="#DejaVuSans-48"/>
       <use x="190.869141" xlink:href="#DejaVuSans-48"/>
      </g>
     </g>
    </g>
   </g>
   <g id="matplotlib.axis_2">
    <g id="ytick_1">
     <g id="line2d_7">
      <defs>
       <path d="M 0 0 
L -3.5 0 
" id="me02f510688" style="stroke:#000000;stroke-width:0.8;"/>
      </defs>
      <g>
       <use style="stroke:#000000;stroke-width:0.8;" x="57.6" xlink:href="#me02f510688" y="145.937509"/>
      </g>
     </g>
     <g id="text_7">
      <!-- 4 -->
      <g transform="translate(44.2375 149.736728)scale(0.1 -0.1)">
       <use xlink:href="#DejaVuSans-52"/>
      </g>
     </g>
    </g>
    <g id="ytick_2">
     <g id="line2d_8">
      <g>
       <use style="stroke:#000000;stroke-width:0.8;" x="57.6" xlink:href="#me02f510688" y="123.944754"/>
      </g>
     </g>
     <g id="text_8">
      <!-- 6 -->
      <g transform="translate(44.2375 127.743973)scale(0.1 -0.1)">
       <use xlink:href="#DejaVuSans-54"/>
      </g>
     </g>
    </g>
    <g id="ytick_3">
     <g id="line2d_9">
      <g>
       <use style="stroke:#000000;stroke-width:0.8;" x="57.6" xlink:href="#me02f510688" y="101.952"/>
      </g>
     </g>
     <g id="text_9">
      <!-- 8 -->
      <g transform="translate(44.2375 105.751219)scale(0.1 -0.1)">
       <use xlink:href="#DejaVuSans-56"/>
      </g>
     </g>
    </g>
    <g id="ytick_4">
     <g id="line2d_10">
      <g>
       <use style="stroke:#000000;stroke-width:0.8;" x="57.6" xlink:href="#me02f510688" y="79.959246"/>
      </g>
     </g>
     <g id="text_10">
      <!-- 10 -->
      <g transform="translate(37.875 83.758464)scale(0.1 -0.1)">
       <use xlink:href="#DejaVuSans-49"/>
       <use x="63.623047" xlink:href="#DejaVuSans-48"/>
      </g>
     </g>
    </g>
    <g id="ytick_5">
     <g id="line2d_11">
      <g>
       <use style="stroke:#000000;stroke-width:0.8;" x="57.6" xlink:href="#me02f510688" y="57.966491"/>
      </g>
     </g>
     <g id="text_11">
      <!-- 12 -->
      <g transform="translate(37.875 61.76571)scale(0.1 -0.1)">
       <use xlink:href="#DejaVuSans-49"/>
       <use x="63.623047" xlink:href="#DejaVuSans-50"/>
      </g>
     </g>
    </g>
   </g>
   <g id="line2d_12">
    <path clip-path="url(#pe0b86bc52a)" d="M 73.832727 101.952 
L 76.435169 75.440035 
L 77.736389 64.28407 
L 78.712305 57.44025 
L 79.68822 52.176431 
L 80.33883 49.639788 
L 80.989441 47.92979 
L 81.314746 47.393751 
L 81.640051 47.073459 
L 81.965356 46.970182 
L 82.290661 47.084327 
L 82.615966 47.415443 
L 83.266577 48.722499 
L 83.917187 50.870695 
L 84.567797 53.826086 
L 85.543713 59.66719 
L 86.519628 67.009247 
L 87.820849 78.676482 
L 89.77268 98.668786 
L 92.700426 128.615308 
L 94.001647 139.745696 
L 94.977562 146.565027 
L 95.953478 151.800764 
L 96.604088 154.317176 
L 97.254698 156.006106 
L 97.580004 156.531402 
L 97.905309 156.840865 
L 98.230614 156.933274 
L 98.555919 156.808263 
L 98.881224 156.466325 
L 99.531835 155.137933 
L 100.182445 152.969089 
L 100.833055 149.994065 
L 101.808971 144.126086 
L 102.784886 136.761086 
L 104.086107 125.070757 
L 106.037938 105.062603 
L 108.965684 75.137612 
L 110.266905 64.032913 
L 111.24282 57.238136 
L 112.218736 52.030533 
L 112.869346 49.534377 
L 113.519956 47.866532 
L 113.845261 47.351986 
L 114.170567 47.053352 
L 114.495872 46.971813 
L 114.821177 47.10769 
L 115.146482 47.460445 
L 115.797092 48.810161 
L 116.447703 50.999632 
L 117.098313 53.994259 
L 118.074228 59.889054 
L 119.050144 67.276925 
L 120.351365 78.990233 
L 122.303195 99.014039 
L 124.905637 125.852245 
L 126.206857 137.425952 
L 127.182773 144.67551 
L 128.158688 150.408543 
L 128.809299 153.28511 
L 129.459909 155.350504 
L 130.110519 156.572087 
L 130.435824 156.859887 
L 130.76113 156.930556 
L 131.086435 156.783815 
L 131.41174 156.420245 
L 132.06235 155.04922 
L 132.71296 152.839144 
L 133.363571 149.824943 
L 134.339486 143.90339 
L 135.315402 136.49272 
L 136.616622 124.75655 
L 138.568453 104.71729 
L 141.170895 77.89616 
L 142.472115 66.346122 
L 143.448031 59.119869 
L 144.423946 53.413996 
L 145.074556 50.557206 
L 145.725167 48.512564 
L 146.375777 47.31238 
L 146.701082 47.035417 
L 147.026387 46.975619 
L 147.351692 47.133222 
L 147.676998 47.507603 
L 148.327608 48.899925 
L 148.978218 51.130583 
L 149.628829 54.164329 
L 150.604744 60.112581 
L 151.58066 67.545975 
L 152.88188 79.304892 
L 154.833711 99.359408 
L 157.436152 126.163197 
L 158.737373 137.689452 
L 159.713288 144.892329 
L 160.689204 150.570985 
L 161.339814 153.40797 
L 161.990424 155.431839 
L 162.641035 156.610612 
L 162.96634 156.876736 
L 163.291645 156.925662 
L 163.61695 156.757199 
L 163.942255 156.372011 
L 164.592866 154.958406 
L 165.243476 152.707187 
L 165.894086 149.653926 
L 166.870002 143.679034 
L 167.845917 136.222989 
L 169.147138 124.441441 
L 171.098969 104.371868 
L 173.70141 77.585685 
L 175.002631 66.083327 
L 175.978546 58.903898 
L 176.954462 53.252514 
L 177.605072 50.435364 
L 178.255682 48.432287 
L 178.906293 47.274936 
L 179.231598 47.019654 
L 179.556903 46.9816 
L 179.882208 47.160923 
L 180.207513 47.556914 
L 180.858124 48.991787 
L 181.508734 51.263545 
L 182.159344 54.33629 
L 183.13526 60.337764 
L 184.111175 67.816386 
L 185.412396 79.620448 
L 187.364227 99.704879 
L 189.966668 126.473191 
L 191.267889 137.951538 
L 192.243804 145.10745 
L 193.219719 150.731505 
L 193.87033 153.528793 
L 194.52094 155.511058 
L 195.17155 156.646975 
L 195.496856 156.891412 
L 195.822161 156.918594 
L 196.147466 156.728414 
L 196.472771 156.321623 
L 197.123381 154.865496 
L 197.773992 152.573221 
L 198.424602 149.481023 
L 199.400517 143.453027 
L 200.376433 135.951901 
L 201.677653 124.125443 
L 203.629484 104.026351 
L 206.231926 77.276175 
L 207.533146 65.821952 
L 208.509062 58.68963 
L 209.484977 53.092959 
L 210.135588 50.315559 
L 210.786198 48.354126 
L 211.436808 47.239655 
L 211.762113 47.006065 
L 212.087418 46.989755 
L 212.412724 47.190791 
L 212.738029 47.608377 
L 213.388639 49.085745 
L 214.039249 51.398513 
L 214.68986 54.510134 
L 215.665775 60.564592 
L 216.641691 68.088148 
L 217.942911 79.936886 
L 220.220047 103.507925 
L 222.497183 126.782215 
L 223.798404 138.212201 
L 224.77432 145.320863 
L 225.750235 150.890094 
L 226.400845 153.647577 
L 227.051456 155.588159 
L 227.702066 156.681175 
L 228.027371 156.903915 
L 228.352676 156.909352 
L 228.677981 156.697462 
L 229.003287 156.269085 
L 229.653897 154.770492 
L 230.304507 152.437253 
L 230.955118 149.30624 
L 231.931033 143.225379 
L 232.906948 135.679469 
L 234.208169 123.808567 
L 236.485305 100.223249 
L 238.762441 76.96764 
L 240.063662 65.562006 
L 241.039577 58.477073 
L 242.015493 52.935337 
L 242.666103 50.197798 
L 243.316713 48.278086 
L 243.967324 47.206538 
L 244.292629 46.994648 
L 244.617934 47.000085 
L 244.943239 47.222825 
L 245.268544 47.66199 
L 245.919155 49.181794 
L 246.569765 51.53548 
L 247.220375 54.685855 
L 248.196291 60.793058 
L 249.172206 68.361248 
L 250.473427 80.254196 
L 252.750563 103.85356 
L 255.027699 127.090257 
L 256.32892 138.471428 
L 257.304835 145.532561 
L 258.280751 151.046748 
L 258.931361 153.764316 
L 259.581971 155.663138 
L 260.232582 156.713209 
L 260.557887 156.914245 
L 260.883192 156.897935 
L 261.208497 156.664345 
L 261.533802 156.214398 
L 262.184412 154.673399 
L 262.835023 152.299289 
L 263.485633 149.129583 
L 264.461549 142.996098 
L 265.437464 135.405702 
L 266.738685 123.490827 
L 269.015821 99.877649 
L 271.292957 76.660094 
L 272.594177 65.303499 
L 273.570093 58.266236 
L 274.546008 52.779653 
L 275.196619 50.082083 
L 275.847229 48.204169 
L 276.497839 47.175586 
L 276.823144 46.985406 
L 277.14845 47.012588 
L 277.473755 47.257025 
L 277.79906 47.71775 
L 278.44967 49.27993 
L 279.100281 51.674441 
L 279.750891 54.863446 
L 280.726806 61.023152 
L 281.702722 68.635678 
L 283.003942 80.572363 
L 285.281079 104.199121 
L 287.558215 127.397305 
L 288.859435 138.729212 
L 289.835351 145.742535 
L 290.811266 151.20146 
L 291.461876 153.879005 
L 292.112487 155.735992 
L 292.763097 156.743077 
L 293.088402 156.9224 
L 293.413707 156.884346 
L 293.739013 156.629064 
L 294.064318 156.157565 
L 294.714928 154.574221 
L 295.365538 152.159332 
L 296.016149 148.95106 
L 296.992064 142.765194 
L 297.96798 135.130612 
L 299.2692 123.172235 
L 301.546336 99.532132 
L 303.823472 76.353548 
L 305.124693 65.046442 
L 306.100608 58.057127 
L 307.076524 52.625915 
L 307.727134 49.968421 
L 308.377745 48.132378 
L 309.028355 47.146801 
L 309.35366 46.978338 
L 309.678965 47.027264 
L 310.00427 47.293388 
L 310.329576 47.775656 
L 310.980186 49.380149 
L 311.630796 51.815391 
L 312.281406 55.042899 
L 313.257322 61.254864 
L 314.233237 68.911425 
L 315.534458 80.891377 
L 317.811594 104.544592 
L 320.08873 127.703346 
L 321.389951 138.98554 
L 322.365866 145.950777 
L 323.341782 151.354223 
L 323.992392 153.99164 
L 324.643002 155.806719 
L 325.293613 156.770778 
L 325.618918 156.928381 
L 325.944223 156.868583 
L 326.269528 156.59162 
L 326.594833 156.098588 
L 327.245444 154.472961 
L 327.896054 152.01739 
L 328.546664 148.770678 
L 329.52258 142.532675 
L 330.498495 134.85421 
L 331.799716 122.852803 
L 334.076852 99.18671 
L 336.353988 76.048015 
L 337.655209 64.790844 
L 338.631124 57.849754 
L 339.60704 52.474128 
L 340.25765 49.856814 
L 340.90826 48.062716 
L 341.55887 47.120185 
L 341.884176 46.973444 
L 342.209481 47.044113 
L 342.534786 47.331913 
L 342.860091 47.835704 
L 343.510701 49.482449 
L 344.161312 51.958325 
L 344.811922 55.224208 
L 345.787837 61.488187 
L 346.763753 69.18848 
L 348.064974 81.211224 
L 350.34211 104.889961 
L 352.619246 128.008368 
L 353.920466 139.240404 
L 354.896382 146.157279 
L 355.872297 151.505032 
L 356.522908 154.102216 
L 357.173518 155.875315 
L 357.824128 156.79631 
L 358.149433 156.932187 
L 358.474739 156.850648 
L 358.800044 156.552014 
L 359.125349 156.037468 
L 359.775959 154.369623 
L 360.42657 151.873467 
L 361.07718 148.588444 
L 362.053095 142.298551 
L 363.029011 134.576506 
L 364.330231 122.532545 
L 366.607367 98.841397 
L 368.884504 75.743507 
L 370.185724 64.536717 
L 371.16164 57.644126 
L 372.137555 52.324298 
L 372.788165 49.747269 
L 373.438776 47.995186 
L 374.089386 47.095737 
L 374.414691 46.970726 
L 374.739996 47.063135 
L 375.065302 47.372598 
L 375.390607 47.897894 
L 376.041217 49.586824 
L 376.691827 52.103236 
L 377.342438 55.407365 
L 378.318353 61.723111 
L 379.294269 69.46683 
L 380.595489 81.531891 
L 382.872625 105.235214 
L 385.149761 128.312359 
L 386.450982 139.493792 
L 387.426897 146.362031 
L 388.402813 151.653881 
L 389.053423 154.21073 
L 389.704034 155.941779 
L 390.354644 156.819673 
L 390.679949 156.933818 
L 391.005254 156.830541 
L 391.330559 156.510249 
L 391.98117 155.224542 
L 392.63178 153.097015 
L 393.28239 150.161288 
L 394.258306 144.347115 
L 395.234221 137.028074 
L 396.535442 125.384049 
L 398.487273 105.407792 
L 398.487273 105.407792 
" style="fill:none;stroke:#1f77b4;stroke-linecap:square;stroke-width:1.5;"/>
   </g>
   <g id="patch_3">
    <path d="M 57.6 162.432 
L 57.6 41.472 
" style="fill:none;stroke:#000000;stroke-linecap:square;stroke-linejoin:miter;stroke-width:0.8;"/>
   </g>
   <g id="patch_4">
    <path d="M 414.72 162.432 
L 414.72 41.472 
" style="fill:none;stroke:#000000;stroke-linecap:square;stroke-linejoin:miter;stroke-width:0.8;"/>
   </g>
   <g id="patch_5">
    <path d="M 57.6 162.432 
L 414.72 162.432 
" style="fill:none;stroke:#000000;stroke-linecap:square;stroke-linejoin:miter;stroke-width:0.8;"/>
   </g>
   <g id="patch_6">
    <path d="M 57.6 41.472 
L 414.72 41.472 
" style="fill:none;stroke:#000000;stroke-linecap:square;stroke-linejoin:miter;stroke-width:0.8;"/>
   </g>
  </g>
 </g>
 <defs>
  <clipPath id="pe0b86bc52a">
   <rect height="120.96" width="357.12" x="57.6" y="41.472"/>
  </clipPath>
 </defs>
</svg>
